\relax 
\providecommand\hyper@newdestlabel[2]{}
\providecommand\HyperFirstAtBeginDocument{\AtBeginDocument}
\HyperFirstAtBeginDocument{\ifx\hyper@anchor\@undefined
\global\let\oldcontentsline\contentsline
\gdef\contentsline#1#2#3#4{\oldcontentsline{#1}{#2}{#3}}
\global\let\oldnewlabel\newlabel
\gdef\newlabel#1#2{\newlabelxx{#1}#2}
\gdef\newlabelxx#1#2#3#4#5#6{\oldnewlabel{#1}{{#2}{#3}}}
\AtEndDocument{\ifx\hyper@anchor\@undefined
\let\contentsline\oldcontentsline
\let\newlabel\oldnewlabel
\fi}
\fi}
\global\let\hyper@last\relax 
\gdef\HyperFirstAtBeginDocument#1{#1}
\providecommand*\HyPL@Entry[1]{}
\HyPL@Entry{0<</S/D>>}
\@writefile{toc}{\contentsline {section}{Contributors to \siesta }{2}{section*.1}}
\@writefile{toc}{\contentsline {section}{\numberline {1}INTRODUCTION}{8}{section.1}}
\@writefile{toc}{\contentsline {section}{\numberline {2}COMPILATION}{10}{section.2}}
\newlabel{sec:compilation}{{2}{10}{COMPILATION}{section.2}{}}
\@writefile{toc}{\contentsline {subsection}{\numberline {2.1}The build directory}{10}{subsection.2.1}}
\@writefile{toc}{\contentsline {subsubsection}{\numberline {2.1.1}Multiple-target compilation}{11}{subsubsection.2.1.1}}
\@writefile{toc}{\contentsline {subsection}{\numberline {2.2}The arch.make file}{11}{subsection.2.2}}
\newlabel{sec:arch-make}{{2.2}{11}{The arch.make file}{subsection.2.2}{}}
\@writefile{toc}{\contentsline {subsection}{\numberline {2.3}Parallel}{12}{subsection.2.3}}
\newlabel{sec:parallel}{{2.3}{12}{Parallel}{subsection.2.3}{}}
\@writefile{toc}{\contentsline {subsubsection}{\numberline {2.3.1}MPI}{12}{subsubsection.2.3.1}}
\@writefile{toc}{\contentsline {subsubsection}{\numberline {2.3.2}OpenMP}{12}{subsubsection.2.3.2}}
\@writefile{toc}{\contentsline {subsection}{\numberline {2.4}Library dependencies}{13}{subsection.2.4}}
\newlabel{sec:libs}{{2.4}{13}{Library dependencies}{subsection.2.4}{}}
\citation{ELPA,ELPA-1}
\@writefile{toc}{\contentsline {section}{\numberline {3}EXECUTION OF THE PROGRAM}{17}{section.3}}
\@writefile{toc}{\contentsline {subsection}{\numberline {3.1}Specific execution options}{19}{subsection.3.1}}
\newlabel{Command line options!-h}{{3.1}{19}{Specific execution options}{subsection.3.1}{}}
\newlabel{Command line options!-L}{{3.1}{19}{Specific execution options}{subsection.3.1}{}}
\newlabel{Command line options!-out}{{3.1}{19}{Specific execution options}{subsection.3.1}{}}
\newlabel{Command line options!-o}{{3.1}{19}{Specific execution options}{subsection.3.1}{}}
\newlabel{Command line options!-electrode}{{3.1}{19}{Specific execution options}{subsection.3.1}{}}
\newlabel{Command line options!-elec}{{3.1}{19}{Specific execution options}{subsection.3.1}{}}
\newlabel{Command line options!-V}{{3.1}{20}{Specific execution options}{subsection.3.1}{}}
\@writefile{toc}{\contentsline {section}{\numberline {4}THE FLEXIBLE DATA FORMAT (FDF)}{20}{section.4}}
\@writefile{toc}{\contentsline {section}{\numberline {5}PROGRAM OUTPUT}{21}{section.5}}
\@writefile{toc}{\contentsline {subsection}{\numberline {5.1}Standard output}{21}{subsection.5.1}}
\newlabel{LongOutput}{{5.1}{22}{Standard output}{subsection.5.1}{}}
\@writefile{toc}{\contentsline {subsection}{\numberline {5.2}Output to dedicated files}{22}{subsection.5.2}}
\@writefile{toc}{\contentsline {section}{\numberline {6}DETAILED DESCRIPTION OF PROGRAM OPTIONS}{22}{section.6}}
\@writefile{toc}{\contentsline {subsection}{\numberline {6.1}General system descriptors}{22}{subsection.6.1}}
\newlabel{SystemLabel}{{6.1}{22}{General system descriptors}{subsection.6.1}{}}
\newlabel{SystemName}{{6.1}{22}{General system descriptors}{subsection.6.1}{}}
\newlabel{NumberOfSpecies}{{6.1}{23}{General system descriptors}{subsection.6.1}{}}
\newlabel{NumberOfAtoms}{{6.1}{23}{General system descriptors}{subsection.6.1}{}}
\newlabel{ChemicalSpeciesLabel}{{6.1}{23}{General system descriptors}{subsection.6.1}{}}
\newlabel{SyntheticAtoms}{{6.1}{23}{General system descriptors}{subsection.6.1}{}}
\newlabel{AtomicMass}{{6.1}{23}{General system descriptors}{subsection.6.1}{}}
\@writefile{toc}{\contentsline {subsection}{\numberline {6.2}Pseudopotentials}{24}{subsection.6.2}}
\@writefile{toc}{\contentsline {subsection}{\numberline {6.3}Basis set and KB projectors}{24}{subsection.6.3}}
\@writefile{toc}{\contentsline {subsubsection}{\numberline {6.3.1}Overview of atomic-orbital bases implemented in \siesta }{24}{subsubsection.6.3.1}}
\@writefile{toc}{\contentsline {subsubsection}{\numberline {6.3.2}Type of basis sets}{28}{subsubsection.6.3.2}}
\newlabel{PAO!BasisType}{{6.3.2}{28}{Type of basis sets}{subsubsection.6.3.2}{}}
\newlabel{PAO!BasisType!split}{{6.3.2}{28}{Type of basis sets}{subsubsection.6.3.2}{}}
\newlabel{PAO!BasisType!splitgauss}{{6.3.2}{28}{Type of basis sets}{subsubsection.6.3.2}{}}
\newlabel{PAO!BasisType!nodes}{{6.3.2}{28}{Type of basis sets}{subsubsection.6.3.2}{}}
\newlabel{PAO!BasisType!nonodes}{{6.3.2}{28}{Type of basis sets}{subsubsection.6.3.2}{}}
\newlabel{PAO!BasisType!filteret}{{6.3.2}{28}{Type of basis sets}{subsubsection.6.3.2}{}}
\@writefile{toc}{\contentsline {subsubsection}{\numberline {6.3.3}Size of the basis set}{29}{subsubsection.6.3.3}}
\newlabel{PAO!BasisSize}{{6.3.3}{29}{Size of the basis set}{subsubsection.6.3.3}{}}
\newlabel{PAO!BasisSize!SZ}{{6.3.3}{29}{Size of the basis set}{subsubsection.6.3.3}{}}
\newlabel{PAO!BasisSize!minimal}{{6.3.3}{29}{Size of the basis set}{subsubsection.6.3.3}{}}
\newlabel{PAO!BasisSize!DZ}{{6.3.3}{29}{Size of the basis set}{subsubsection.6.3.3}{}}
\newlabel{PAO!BasisSize!SZP}{{6.3.3}{29}{Size of the basis set}{subsubsection.6.3.3}{}}
\newlabel{PAO!BasisSize!DZP}{{6.3.3}{29}{Size of the basis set}{subsubsection.6.3.3}{}}
\newlabel{PAO!BasisSizes}{{6.3.3}{29}{Size of the basis set}{subsubsection.6.3.3}{}}
\@writefile{toc}{\contentsline {subsubsection}{\numberline {6.3.4}Range of the orbitals}{29}{subsubsection.6.3.4}}
\newlabel{PAO!EnergyShift}{{6.3.4}{29}{Range of the orbitals}{subsubsection.6.3.4}{}}
\newlabel{Write!Graphviz}{{6.3.4}{29}{Range of the orbitals}{subsubsection.6.3.4}{}}
\@writefile{toc}{\contentsline {subsubsection}{\numberline {6.3.5}Generation of multiple-zeta orbitals}{30}{subsubsection.6.3.5}}
\newlabel{PAO!SplitNorm}{{6.3.5}{30}{Generation of multiple-zeta orbitals}{subsubsection.6.3.5}{}}
\newlabel{PAO!SplitNormH}{{6.3.5}{30}{Generation of multiple-zeta orbitals}{subsubsection.6.3.5}{}}
\newlabel{PAO!NewSplitCode}{{6.3.5}{30}{Generation of multiple-zeta orbitals}{subsubsection.6.3.5}{}}
\newlabel{PAO!FixSplitTable}{{6.3.5}{30}{Generation of multiple-zeta orbitals}{subsubsection.6.3.5}{}}
\newlabel{PAO!SplitTailNorm}{{6.3.5}{30}{Generation of multiple-zeta orbitals}{subsubsection.6.3.5}{}}
\newlabel{PAO!EnergyCutoff}{{6.3.5}{30}{Generation of multiple-zeta orbitals}{subsubsection.6.3.5}{}}
\newlabel{PAO!EnergyPolCutoff}{{6.3.5}{31}{Generation of multiple-zeta orbitals}{subsubsection.6.3.5}{}}
\newlabel{PAO!ContractionCutoff}{{6.3.5}{31}{Generation of multiple-zeta orbitals}{subsubsection.6.3.5}{}}
\@writefile{toc}{\contentsline {subsubsection}{\numberline {6.3.6}Soft-confinement options}{31}{subsubsection.6.3.6}}
\newlabel{PAO!SoftDefault}{{6.3.6}{31}{Soft-confinement options}{subsubsection.6.3.6}{}}
\newlabel{PAO!SoftInnerRadius}{{6.3.6}{31}{Soft-confinement options}{subsubsection.6.3.6}{}}
\newlabel{PAO!SoftPotential}{{6.3.6}{31}{Soft-confinement options}{subsubsection.6.3.6}{}}
\@writefile{toc}{\contentsline {subsubsection}{\numberline {6.3.7}Kleinman-Bylander projectors}{31}{subsubsection.6.3.7}}
\newlabel{PS!lmax}{{6.3.7}{31}{Kleinman-Bylander projectors}{subsubsection.6.3.7}{}}
\newlabel{PS.KBprojectors}{{6.3.7}{32}{Kleinman-Bylander projectors}{subsubsection.6.3.7}{}}
\newlabel{KB.New.Reference.Orbitals}{{6.3.7}{33}{Kleinman-Bylander projectors}{subsubsection.6.3.7}{}}
\@writefile{toc}{\contentsline {subsubsection}{\numberline {6.3.8}The PAO.Basis block}{33}{subsubsection.6.3.8}}
\newlabel{PAO!Basis}{{6.3.8}{33}{The PAO.Basis block}{subsubsection.6.3.8}{}}
\citation{SOLER20091134}
\@writefile{toc}{\contentsline {subsubsection}{\numberline {6.3.9}Filtering}{36}{subsubsection.6.3.9}}
\newlabel{sec:filtering}{{6.3.9}{36}{Filtering}{subsubsection.6.3.9}{}}
\newlabel{FilterCutoff}{{6.3.9}{36}{Filtering}{subsubsection.6.3.9}{}}
\newlabel{FilterTol}{{6.3.9}{36}{Filtering}{subsubsection.6.3.9}{}}
\@writefile{toc}{\contentsline {subsubsection}{\numberline {6.3.10}Saving and reading basis-set information}{36}{subsubsection.6.3.10}}
\newlabel{User!Basis}{{6.3.10}{36}{Saving and reading basis-set information}{subsubsection.6.3.10}{}}
\newlabel{User!Basis.NetCDF}{{6.3.10}{37}{Saving and reading basis-set information}{subsubsection.6.3.10}{}}
\@writefile{toc}{\contentsline {subsubsection}{\numberline {6.3.11}Tools to inspect the orbitals and KB projectors}{37}{subsubsection.6.3.11}}
\@writefile{toc}{\contentsline {subsubsection}{\numberline {6.3.12}Basis optimization}{37}{subsubsection.6.3.12}}
\newlabel{BasisPressure}{{6.3.12}{37}{Basis optimization}{subsubsection.6.3.12}{}}
\@writefile{toc}{\contentsline {subsubsection}{\numberline {6.3.13}Low-level options regarding the radial grid}{37}{subsubsection.6.3.13}}
\newlabel{Reparametrize.Pseudos}{{6.3.13}{38}{Low-level options regarding the radial grid}{subsubsection.6.3.13}{}}
\newlabel{New!A.Parameter}{{6.3.13}{38}{Low-level options regarding the radial grid}{subsubsection.6.3.13}{}}
\newlabel{New!B.Parameter}{{6.3.13}{38}{Low-level options regarding the radial grid}{subsubsection.6.3.13}{}}
\newlabel{Rmax.Radial.Grid}{{6.3.13}{38}{Low-level options regarding the radial grid}{subsubsection.6.3.13}{}}
\newlabel{Restricted.Radial.Grid}{{6.3.13}{38}{Low-level options regarding the radial grid}{subsubsection.6.3.13}{}}
\@writefile{toc}{\contentsline {subsection}{\numberline {6.4}Structural information}{38}{subsection.6.4}}
\@writefile{toc}{\contentsline {subsubsection}{\numberline {6.4.1}Traditional structure input in the fdf file}{39}{subsubsection.6.4.1}}
\newlabel{LatticeConstant}{{6.4.1}{39}{Traditional structure input in the fdf file}{subsubsection.6.4.1}{}}
\newlabel{LatticeParameters}{{6.4.1}{39}{Traditional structure input in the fdf file}{subsubsection.6.4.1}{}}
\newlabel{LatticeVectors}{{6.4.1}{39}{Traditional structure input in the fdf file}{subsubsection.6.4.1}{}}
\newlabel{SuperCell}{{6.4.1}{39}{Traditional structure input in the fdf file}{subsubsection.6.4.1}{}}
\newlabel{AtomicCoordinatesFormat}{{6.4.1}{40}{Traditional structure input in the fdf file}{subsubsection.6.4.1}{}}
\newlabel{AtomicCoordinatesFormat!Bohr}{{6.4.1}{40}{Traditional structure input in the fdf file}{subsubsection.6.4.1}{}}
\newlabel{AtomicCoordinatesFormat!NotScaledCartesianBohr}{{6.4.1}{40}{Traditional structure input in the fdf file}{subsubsection.6.4.1}{}}
\newlabel{AtomicCoordinatesFormat!Ang}{{6.4.1}{40}{Traditional structure input in the fdf file}{subsubsection.6.4.1}{}}
\newlabel{AtomicCoordinatesFormat!NotScaledCartesianAng}{{6.4.1}{40}{Traditional structure input in the fdf file}{subsubsection.6.4.1}{}}
\newlabel{AtomicCoordinatesFormat!ScaledCartesian}{{6.4.1}{40}{Traditional structure input in the fdf file}{subsubsection.6.4.1}{}}
\newlabel{AtomicCoordinatesFormat!Fractional}{{6.4.1}{40}{Traditional structure input in the fdf file}{subsubsection.6.4.1}{}}
\newlabel{AtomicCoordinatesFormat!ScaledByLatticeVectors}{{6.4.1}{40}{Traditional structure input in the fdf file}{subsubsection.6.4.1}{}}
\newlabel{AtomCoorFormatOut}{{6.4.1}{40}{Traditional structure input in the fdf file}{subsubsection.6.4.1}{}}
\newlabel{AtomicCoordinatesOrigin}{{6.4.1}{40}{Traditional structure input in the fdf file}{subsubsection.6.4.1}{}}
\newlabel{AtomicCoordinatesAndAtomicSpecies}{{6.4.1}{40}{Traditional structure input in the fdf file}{subsubsection.6.4.1}{}}
\@writefile{toc}{\contentsline {subsubsection}{\numberline {6.4.2}Z-matrix format and constraints}{41}{subsubsection.6.4.2}}
\newlabel{sec:Zmatrix}{{6.4.2}{41}{Z-matrix format and constraints}{subsubsection.6.4.2}{}}
\newlabel{Zmatrix}{{6.4.2}{41}{Z-matrix format and constraints}{subsubsection.6.4.2}{}}
\newlabel{ZM!UnitsLength}{{6.4.2}{44}{Z-matrix format and constraints}{subsubsection.6.4.2}{}}
\newlabel{ZM!UnitsAngle}{{6.4.2}{44}{Z-matrix format and constraints}{subsubsection.6.4.2}{}}
\@writefile{toc}{\contentsline {subsubsection}{\numberline {6.4.3}Output of structural information}{44}{subsubsection.6.4.3}}
\newlabel{WriteCoorXmol}{{6.4.3}{45}{Output of structural information}{subsubsection.6.4.3}{}}
\newlabel{WriteCoorCerius}{{6.4.3}{45}{Output of structural information}{subsubsection.6.4.3}{}}
\newlabel{WriteMDXmol}{{6.4.3}{45}{Output of structural information}{subsubsection.6.4.3}{}}
\@writefile{toc}{\contentsline {subsubsection}{\numberline {6.4.4}Input of structural information from external files}{45}{subsubsection.6.4.4}}
\newlabel{MD!UseSaveXV}{{6.4.4}{45}{Input of structural information from external files}{subsubsection.6.4.4}{}}
\newlabel{UseStructFile}{{6.4.4}{46}{Input of structural information from external files}{subsubsection.6.4.4}{}}
\newlabel{MD!UseSaveZM}{{6.4.4}{46}{Input of structural information from external files}{subsubsection.6.4.4}{}}
\@writefile{toc}{\contentsline {subsubsection}{\numberline {6.4.5}Input from a FIFO file}{46}{subsubsection.6.4.5}}
\@writefile{toc}{\contentsline {subsubsection}{\numberline {6.4.6}Precedence issues in structural input}{46}{subsubsection.6.4.6}}
\@writefile{toc}{\contentsline {subsubsection}{\numberline {6.4.7}Interatomic distances}{46}{subsubsection.6.4.7}}
\newlabel{WarningMinimumAtomicDistance}{{6.4.7}{46}{Interatomic distances}{subsubsection.6.4.7}{}}
\newlabel{MaxBondDistance}{{6.4.7}{47}{Interatomic distances}{subsubsection.6.4.7}{}}
\@writefile{toc}{\contentsline {subsection}{\numberline {6.5}$k$-point sampling}{47}{subsection.6.5}}
\newlabel{ssec:k-points}{{6.5}{47}{\texorpdfstring {$k$}{k}-point sampling}{subsection.6.5}{}}
\newlabel{kgrid!MonkhorstPack}{{6.5}{47}{\texorpdfstring {$k$}{k}-point sampling}{subsection.6.5}{}}
\newlabel{kgrid!Cutoff}{{6.5}{47}{\texorpdfstring {$k$}{k}-point sampling}{subsection.6.5}{}}
\newlabel{kgrid!File}{{6.5}{48}{\texorpdfstring {$k$}{k}-point sampling}{subsection.6.5}{}}
\newlabel{ChangeKgridInMD}{{6.5}{48}{\texorpdfstring {$k$}{k}-point sampling}{subsection.6.5}{}}
\newlabel{TimeReversalSymmetryForKpoints}{{6.5}{48}{\texorpdfstring {$k$}{k}-point sampling}{subsection.6.5}{}}
\@writefile{toc}{\contentsline {subsubsection}{\numberline {6.5.1}Output of k-point information}{48}{subsubsection.6.5.1}}
\newlabel{WriteKpoints}{{6.5.1}{48}{Output of k-point information}{subsubsection.6.5.1}{}}
\@writefile{toc}{\contentsline {subsection}{\numberline {6.6}Exchange-correlation functionals}{49}{subsection.6.6}}
\newlabel{XC!Functional}{{6.6}{49}{Exchange-correlation functionals}{subsection.6.6}{}}
\newlabel{XC!Authors}{{6.6}{49}{Exchange-correlation functionals}{subsection.6.6}{}}
\newlabel{XC!Hybrid}{{6.6}{50}{Exchange-correlation functionals}{subsection.6.6}{}}
\newlabel{XC!Use.BSC.CellXC}{{6.6}{50}{Exchange-correlation functionals}{subsection.6.6}{}}
\@writefile{toc}{\contentsline {subsection}{\numberline {6.7}Spin polarization}{50}{subsection.6.7}}
\newlabel{Spin}{{6.7}{50}{Spin polarization}{subsection.6.7}{}}
\newlabel{Spin!non-polarized}{{6.7}{51}{Spin polarization}{subsection.6.7}{}}
\newlabel{Spin!polarized}{{6.7}{51}{Spin polarization}{subsection.6.7}{}}
\newlabel{Spin!non-colinear}{{6.7}{51}{Spin polarization}{subsection.6.7}{}}
\newlabel{Spin!spin-orbit}{{6.7}{51}{Spin polarization}{subsection.6.7}{}}
\newlabel{Spin!Fix}{{6.7}{51}{Spin polarization}{subsection.6.7}{}}
\newlabel{FixSpin}{{6.7}{51}{Spin polarization}{subsection.6.7}{}}
\newlabel{Spin!Total}{{6.7}{51}{Spin polarization}{subsection.6.7}{}}
\newlabel{TotalSpin}{{6.7}{51}{Spin polarization}{subsection.6.7}{}}
\newlabel{SingleExcitation}{{6.7}{51}{Spin polarization}{subsection.6.7}{}}
\@writefile{toc}{\contentsline {subsection}{\numberline {6.8}Spin-Orbit coupling}{51}{subsection.6.8}}
\newlabel{sec:spin-orbit}{{6.8}{51}{Spin-Orbit coupling}{subsection.6.8}{}}
\newlabel{Spin!OrbitStrength}{{6.8}{53}{Spin-Orbit coupling}{subsection.6.8}{}}
\newlabel{WriteOrbMom}{{6.8}{53}{Spin-Orbit coupling}{subsection.6.8}{}}
\newlabel{SOC.Split.SR.SO}{{6.8}{53}{Spin-Orbit coupling}{subsection.6.8}{}}
\@writefile{toc}{\contentsline {subsection}{\numberline {6.9}The self-consistent-field loop}{53}{subsection.6.9}}
\newlabel{MinSCFIterations}{{6.9}{54}{The self-consistent-field loop}{subsection.6.9}{}}
\newlabel{MaxSCFIterations}{{6.9}{54}{The self-consistent-field loop}{subsection.6.9}{}}
\newlabel{SCF!MustConverge}{{6.9}{54}{The self-consistent-field loop}{subsection.6.9}{}}
\@writefile{toc}{\contentsline {subsubsection}{\numberline {6.9.1}Harris functional}{54}{subsubsection.6.9.1}}
\newlabel{Harris!Functional}{{6.9.1}{54}{Harris functional}{subsubsection.6.9.1}{}}
\@writefile{toc}{\contentsline {subsubsection}{\numberline {6.9.2}Mixing options}{55}{subsubsection.6.9.2}}
\newlabel{SCF.Mix}{{6.9.2}{55}{Mixing options}{subsubsection.6.9.2}{}}
\newlabel{SCF.Mix!Hamiltonian}{{6.9.2}{55}{Mixing options}{subsubsection.6.9.2}{}}
\newlabel{SCF.Mix!density}{{6.9.2}{55}{Mixing options}{subsubsection.6.9.2}{}}
\newlabel{SCF.Mix!charge}{{6.9.2}{55}{Mixing options}{subsubsection.6.9.2}{}}
\newlabel{SCF.Mix!Spin}{{6.9.2}{55}{Mixing options}{subsubsection.6.9.2}{}}
\newlabel{SCF.Mix!First}{{6.9.2}{55}{Mixing options}{subsubsection.6.9.2}{}}
\newlabel{DM.MixSCF1}{{6.9.2}{55}{Mixing options}{subsubsection.6.9.2}{}}
\citation{Kresse1996}
\newlabel{SCF.Mix!First.Force}{{6.9.2}{56}{Mixing options}{subsubsection.6.9.2}{}}
\newlabel{SCF.Mixer!Method}{{6.9.2}{56}{Mixing options}{subsubsection.6.9.2}{}}
\citation{Kresse1996}
\citation{Bowler2000}
\newlabel{SCF.Mixer!Variant}{{6.9.2}{57}{Mixing options}{equation.6.10}{}}
\newlabel{SCF.Mixer!Weight}{{6.9.2}{57}{Mixing options}{equation.6.10}{}}
\newlabel{DM!MixingWeight}{{6.9.2}{57}{Mixing options}{equation.6.10}{}}
\newlabel{SCF.Mixer!History}{{6.9.2}{57}{Mixing options}{equation.6.11}{}}
\newlabel{DM.NumberPulay}{{6.9.2}{57}{Mixing options}{equation.6.11}{}}
\newlabel{DM.NumberBroyden}{{6.9.2}{57}{Mixing options}{equation.6.11}{}}
\citation{Banerjee2016}
\newlabel{SCF.Mixer!Kick}{{6.9.2}{58}{Mixing options}{equation.6.11}{}}
\newlabel{DM.NumberKick}{{6.9.2}{58}{Mixing options}{equation.6.11}{}}
\newlabel{SCF.Mixer!Kick.Weight}{{6.9.2}{58}{Mixing options}{equation.6.11}{}}
\newlabel{DM!KickMixingWeight}{{6.9.2}{58}{Mixing options}{equation.6.11}{}}
\newlabel{SCF.Mixer!Restart}{{6.9.2}{58}{Mixing options}{equation.6.11}{}}
\newlabel{SCF.Mixer!Restart.Save}{{6.9.2}{58}{Mixing options}{equation.6.11}{}}
\newlabel{SCF.Mixer!Linear.After}{{6.9.2}{58}{Mixing options}{equation.6.11}{}}
\newlabel{SCF.Mixer!Linear.After.Weight}{{6.9.2}{58}{Mixing options}{equation.6.11}{}}
\newlabel{SCF.Mixers}{{6.9.2}{58}{Mixing options}{equation.6.11}{}}
\newlabel{SCF.Mixer.<>}{{6.9.2}{58}{Mixing options}{equation.6.11}{}}
\newlabel{SCF.Mixer.<>!method}{{6.9.2}{59}{Mixing options}{equation.6.11}{}}
\newlabel{SCF.Mixer.<>!variant}{{6.9.2}{59}{Mixing options}{equation.6.11}{}}
\newlabel{SCF.Mixer.<>!weight}{{6.9.2}{59}{Mixing options}{equation.6.11}{}}
\newlabel{SCF.Mixer.<>!history}{{6.9.2}{59}{Mixing options}{equation.6.11}{}}
\newlabel{SCF.Mixer.<>!weight.linear}{{6.9.2}{59}{Mixing options}{equation.6.11}{}}
\newlabel{SCF.Mixer.<>!restart}{{6.9.2}{59}{Mixing options}{equation.6.11}{}}
\newlabel{SCF.Mixer.<>!restart.save}{{6.9.2}{59}{Mixing options}{equation.6.11}{}}
\newlabel{SCF.Mixer.<>!iterations}{{6.9.2}{59}{Mixing options}{equation.6.11}{}}
\newlabel{SCF.Mixer.<>!next}{{6.9.2}{59}{Mixing options}{equation.6.11}{}}
\newlabel{SCF.Mixer.<>!next.conv}{{6.9.2}{59}{Mixing options}{equation.6.11}{}}
\newlabel{SCF.Mixer.<>!next.p}{{6.9.2}{59}{Mixing options}{equation.6.11}{}}
\newlabel{SCF.Mixer.<>!restart.p}{{6.9.2}{59}{Mixing options}{equation.6.12}{}}
\newlabel{Compat!Pre-v4-DM-H}{{6.9.2}{60}{Mixing options}{equation.6.13}{}}
\newlabel{SCF.Mix!AfterConvergence}{{6.9.2}{61}{Mixing options}{equation.6.13}{}}
\newlabel{SCF!RecomputeHAfterSCF}{{6.9.2}{61}{Mixing options}{equation.6.13}{}}
\@writefile{toc}{\contentsline {subsubsection}{\numberline {6.9.3}Mixing of the Charge Density}{61}{subsubsection.6.9.3}}
\newlabel{SCF.Kerker.q0sq}{{6.9.3}{62}{Mixing of the Charge Density}{subsubsection.6.9.3}{}}
\newlabel{SCF.RhoGMixingCutoff}{{6.9.3}{62}{Mixing of the Charge Density}{subsubsection.6.9.3}{}}
\newlabel{SCF.RhoG.DIIS.Depth}{{6.9.3}{62}{Mixing of the Charge Density}{subsubsection.6.9.3}{}}
\newlabel{SCF.RhoG.Metric.Preconditioner.Cutoff}{{6.9.3}{62}{Mixing of the Charge Density}{subsubsection.6.9.3}{}}
\newlabel{SCF.DebugRhoGMixing}{{6.9.3}{62}{Mixing of the Charge Density}{subsubsection.6.9.3}{}}
\newlabel{Debug!DIIS}{{6.9.3}{62}{Mixing of the Charge Density}{subsubsection.6.9.3}{}}
\newlabel{SCF.MixCharge!SCF1}{{6.9.3}{62}{Mixing of the Charge Density}{subsubsection.6.9.3}{}}
\@writefile{toc}{\contentsline {subsubsection}{\numberline {6.9.4}Initialization of the density-matrix}{63}{subsubsection.6.9.4}}
\citation{sisl}
\newlabel{DM!UseSaveDM}{{6.9.4}{64}{Initialization of the density-matrix}{subsubsection.6.9.4}{}}
\newlabel{DM!Init.Unfold}{{6.9.4}{64}{Initialization of the density-matrix}{subsubsection.6.9.4}{}}
\newlabel{DM!FormattedFiles}{{6.9.4}{64}{Initialization of the density-matrix}{subsubsection.6.9.4}{}}
\newlabel{DM!FormattedInput}{{6.9.4}{64}{Initialization of the density-matrix}{subsubsection.6.9.4}{}}
\newlabel{DM!FormattedOutput}{{6.9.4}{64}{Initialization of the density-matrix}{subsubsection.6.9.4}{}}
\newlabel{DM!Init}{{6.9.4}{64}{Initialization of the density-matrix}{subsubsection.6.9.4}{}}
\newlabel{DM!Init!atomic}{{6.9.4}{64}{Initialization of the density-matrix}{subsubsection.6.9.4}{}}
\newlabel{DM!InitSpin!AF}{{6.9.4}{65}{Initialization of the density-matrix}{subsubsection.6.9.4}{}}
\newlabel{DM!InitSpin}{{6.9.4}{65}{Initialization of the density-matrix}{subsubsection.6.9.4}{}}
\newlabel{DM!Init.RandomStates}{{6.9.4}{65}{Initialization of the density-matrix}{subsubsection.6.9.4}{}}
\newlabel{DM!AllowReuse}{{6.9.4}{66}{Initialization of the density-matrix}{subsubsection.6.9.4}{}}
\newlabel{DM!AllowExtrapolation}{{6.9.4}{66}{Initialization of the density-matrix}{subsubsection.6.9.4}{}}
\newlabel{DM!History.Depth}{{6.9.4}{66}{Initialization of the density-matrix}{subsubsection.6.9.4}{}}
\@writefile{toc}{\contentsline {subsubsection}{\numberline {6.9.5}Initialization of the SCF cycle with charge densities}{66}{subsubsection.6.9.5}}
\newlabel{SCF.Read.Charge.NetCDF}{{6.9.5}{66}{Initialization of the SCF cycle with charge densities}{subsubsection.6.9.5}{}}
\newlabel{SCF.Read.Deformation.Charge.NetCDF}{{6.9.5}{66}{Initialization of the SCF cycle with charge densities}{subsubsection.6.9.5}{}}
\@writefile{toc}{\contentsline {subsubsection}{\numberline {6.9.6}Output of density matrix and Hamiltonian}{66}{subsubsection.6.9.6}}
\newlabel{Use.Blocked.WriteMat}{{6.9.6}{66}{Output of density matrix and Hamiltonian}{subsubsection.6.9.6}{}}
\newlabel{Write!DM}{{6.9.6}{67}{Output of density matrix and Hamiltonian}{subsubsection.6.9.6}{}}
\newlabel{Write!DM.end.of.cycle}{{6.9.6}{67}{Output of density matrix and Hamiltonian}{subsubsection.6.9.6}{}}
\newlabel{Write!H}{{6.9.6}{67}{Output of density matrix and Hamiltonian}{subsubsection.6.9.6}{}}
\newlabel{Write!H.end.of.cycle}{{6.9.6}{67}{Output of density matrix and Hamiltonian}{subsubsection.6.9.6}{}}
\newlabel{Write!DM.NetCDF}{{6.9.6}{67}{Output of density matrix and Hamiltonian}{subsubsection.6.9.6}{}}
\newlabel{Write!DMHS.NetCDF}{{6.9.6}{67}{Output of density matrix and Hamiltonian}{subsubsection.6.9.6}{}}
\newlabel{Write!DM.History.NetCDF}{{6.9.6}{68}{Output of density matrix and Hamiltonian}{subsubsection.6.9.6}{}}
\newlabel{Write!DMHS.History.NetCDF}{{6.9.6}{68}{Output of density matrix and Hamiltonian}{subsubsection.6.9.6}{}}
\newlabel{Write!TSHS.History}{{6.9.6}{68}{Output of density matrix and Hamiltonian}{subsubsection.6.9.6}{}}
\@writefile{toc}{\contentsline {subsubsection}{\numberline {6.9.7}Convergence criteria}{68}{subsubsection.6.9.7}}
\newlabel{SCF.DM!Converge}{{6.9.7}{68}{Convergence criteria}{subsubsection.6.9.7}{}}
\newlabel{SCF.DM!Tolerance}{{6.9.7}{68}{Convergence criteria}{subsubsection.6.9.7}{}}
\newlabel{DM.Tolerance}{{6.9.7}{68}{Convergence criteria}{subsubsection.6.9.7}{}}
\newlabel{DM.Normalization.Tolerance}{{6.9.7}{68}{Convergence criteria}{subsubsection.6.9.7}{}}
\newlabel{SCF.H!Converge}{{6.9.7}{68}{Convergence criteria}{subsubsection.6.9.7}{}}
\newlabel{SCF.H!Tolerance}{{6.9.7}{69}{Convergence criteria}{subsubsection.6.9.7}{}}
\newlabel{SCF.EDM!Converge}{{6.9.7}{69}{Convergence criteria}{subsubsection.6.9.7}{}}
\newlabel{SCF.EDM!Tolerance}{{6.9.7}{69}{Convergence criteria}{subsubsection.6.9.7}{}}
\newlabel{SCF.FreeE!Converge}{{6.9.7}{69}{Convergence criteria}{subsubsection.6.9.7}{}}
\newlabel{DM.RequireEnergyConvergence}{{6.9.7}{69}{Convergence criteria}{subsubsection.6.9.7}{}}
\newlabel{SCF.FreeE!Tolerance}{{6.9.7}{69}{Convergence criteria}{subsubsection.6.9.7}{}}
\newlabel{DM.EnergyTolerance}{{6.9.7}{69}{Convergence criteria}{subsubsection.6.9.7}{}}
\newlabel{SCF.Harris!Converge}{{6.9.7}{69}{Convergence criteria}{subsubsection.6.9.7}{}}
\newlabel{DM.Require.Harris.Convergence}{{6.9.7}{69}{Convergence criteria}{subsubsection.6.9.7}{}}
\newlabel{SCF.Harris!Tolerance}{{6.9.7}{69}{Convergence criteria}{subsubsection.6.9.7}{}}
\@writefile{toc}{\contentsline {subsection}{\numberline {6.10}The real-space grid and the eggbox-effect}{70}{subsection.6.10}}
\newlabel{Mesh!Cutoff}{{6.10}{70}{The real-space grid and the eggbox-effect}{subsection.6.10}{}}
\newlabel{Mesh!Sizes}{{6.10}{70}{The real-space grid and the eggbox-effect}{subsection.6.10}{}}
\newlabel{Mesh!SubDivisions}{{6.10}{70}{The real-space grid and the eggbox-effect}{subsection.6.10}{}}
\newlabel{Grid.CellSampling}{{6.10}{71}{The real-space grid and the eggbox-effect}{subsection.6.10}{}}
\newlabel{EggboxRemove}{{6.10}{72}{The real-space grid and the eggbox-effect}{subsection.6.10}{}}
\newlabel{EggboxScale}{{6.10}{73}{The real-space grid and the eggbox-effect}{subsection.6.10}{}}
\@writefile{toc}{\contentsline {subsection}{\numberline {6.11}Matrix elements of the Hamiltonian and overlap}{73}{subsection.6.11}}
\newlabel{NeglNonOverlapInt}{{6.11}{73}{Matrix elements of the Hamiltonian and overlap}{subsection.6.11}{}}
\newlabel{SCF!Write.Extra}{{6.11}{73}{Matrix elements of the Hamiltonian and overlap}{subsection.6.11}{}}
\newlabel{SaveHS}{{6.11}{73}{Matrix elements of the Hamiltonian and overlap}{subsection.6.11}{}}
\@writefile{toc}{\contentsline {subsubsection}{\numberline {6.11.1}The auxiliary supercell}{74}{subsubsection.6.11.1}}
\newlabel{ForceAuxCell}{{6.11.1}{74}{The auxiliary supercell}{subsubsection.6.11.1}{}}
\@writefile{toc}{\contentsline {subsection}{\numberline {6.12}Calculation of the electronic structure}{74}{subsection.6.12}}
\newlabel{SolutionMethod}{{6.12}{75}{Calculation of the electronic structure}{subsection.6.12}{}}
\@writefile{toc}{\contentsline {subsubsection}{\numberline {6.12.1}Diagonalization options}{75}{subsubsection.6.12.1}}
\newlabel{NumberOfEigenStates}{{6.12.1}{75}{Diagonalization options}{subsubsection.6.12.1}{}}
\newlabel{Diag!WFS.Cache}{{6.12.1}{75}{Diagonalization options}{subsubsection.6.12.1}{}}
\newlabel{Diag!WFS.Cache!none}{{6.12.1}{75}{Diagonalization options}{subsubsection.6.12.1}{}}
\newlabel{Diag!WFS.Cache!cdf}{{6.12.1}{76}{Diagonalization options}{subsubsection.6.12.1}{}}
\newlabel{Diag!Use2D}{{6.12.1}{76}{Diagonalization options}{subsubsection.6.12.1}{}}
\newlabel{Diag!ProcessorY}{{6.12.1}{76}{Diagonalization options}{subsubsection.6.12.1}{}}
\newlabel{Diag!BlockSize}{{6.12.1}{76}{Diagonalization options}{subsubsection.6.12.1}{}}
\newlabel{Diag!Algorithm}{{6.12.1}{76}{Diagonalization options}{subsubsection.6.12.1}{}}
\newlabel{Diag!Algorithm!Divide-and-Conquer}{{6.12.1}{76}{Diagonalization options}{subsubsection.6.12.1}{}}
\newlabel{Diag!Algorithm!Divide-and-Conquer-2stage}{{6.12.1}{76}{Diagonalization options}{subsubsection.6.12.1}{}}
\newlabel{Diag!Algorithm!MRRR}{{6.12.1}{76}{Diagonalization options}{subsubsection.6.12.1}{}}
\citation{ELPA,ELPA-1}
\citation{ELPA,ELPA-1}
\newlabel{Diag!Algorithm!MRRR-2stage}{{6.12.1}{77}{Diagonalization options}{subsubsection.6.12.1}{}}
\newlabel{Diag!Algorithm!Expert}{{6.12.1}{77}{Diagonalization options}{subsubsection.6.12.1}{}}
\newlabel{Diag!Algorithm!Expert-2stage}{{6.12.1}{77}{Diagonalization options}{subsubsection.6.12.1}{}}
\newlabel{Diag!Algorithm!NoExpert}{{6.12.1}{77}{Diagonalization options}{subsubsection.6.12.1}{}}
\newlabel{Diag!Algorithm!QR}{{6.12.1}{77}{Diagonalization options}{subsubsection.6.12.1}{}}
\newlabel{Diag!Algorithm!NoExpert-2stage}{{6.12.1}{77}{Diagonalization options}{subsubsection.6.12.1}{}}
\newlabel{Diag!Algorithm!ELPA-1stage}{{6.12.1}{77}{Diagonalization options}{subsubsection.6.12.1}{}}
\newlabel{Diag!Algorithm!ELPA-2stage}{{6.12.1}{77}{Diagonalization options}{subsubsection.6.12.1}{}}
\newlabel{Diag!ParallelOverK}{{6.12.1}{77}{Diagonalization options}{subsubsection.6.12.1}{}}
\newlabel{Diag!AbsTol}{{6.12.1}{77}{Diagonalization options}{subsubsection.6.12.1}{}}
\citation{ELPA,ELPA-1}
\newlabel{Diag!OrFac}{{6.12.1}{78}{Diagonalization options}{subsubsection.6.12.1}{}}
\newlabel{Diag!Memory}{{6.12.1}{78}{Diagonalization options}{subsubsection.6.12.1}{}}
\newlabel{Diag!UpperLower}{{6.12.1}{78}{Diagonalization options}{subsubsection.6.12.1}{}}
\@writefile{toc}{\contentsline {paragraph}{Deprecated diagonalization options}{78}{section*.3}}
\newlabel{Diag!MRRR}{{6.12.1}{78}{Deprecated diagonalization options}{section*.3}{}}
\newlabel{Diag!DivideAndConquer}{{6.12.1}{78}{Deprecated diagonalization options}{section*.3}{}}
\newlabel{Diag!ELPA}{{6.12.1}{78}{Deprecated diagonalization options}{section*.3}{}}
\newlabel{Diag!NoExpert}{{6.12.1}{78}{Deprecated diagonalization options}{section*.3}{}}
\@writefile{toc}{\contentsline {subsubsection}{\numberline {6.12.2}Output of eigenvalues and wavefunctions}{79}{subsubsection.6.12.2}}
\newlabel{WriteEigenvalues}{{6.12.2}{79}{Output of eigenvalues and wavefunctions}{subsubsection.6.12.2}{}}
\@writefile{toc}{\contentsline {subsubsection}{\numberline {6.12.3}Occupation of electronic states and Fermi level}{79}{subsubsection.6.12.3}}
\newlabel{electronic-occupation}{{6.12.3}{79}{Occupation of electronic states and Fermi level}{subsubsection.6.12.3}{}}
\newlabel{OccupationFunction}{{6.12.3}{79}{Occupation of electronic states and Fermi level}{subsubsection.6.12.3}{}}
\newlabel{OccupationMPOrder}{{6.12.3}{80}{Occupation of electronic states and Fermi level}{subsubsection.6.12.3}{}}
\newlabel{ElectronicTemperature}{{6.12.3}{80}{Occupation of electronic states and Fermi level}{subsubsection.6.12.3}{}}
\@writefile{toc}{\contentsline {subsubsection}{\numberline {6.12.4}Orbital minimization method (OMM)}{80}{subsubsection.6.12.4}}
\newlabel{SolverOMM}{{6.12.4}{80}{Orbital minimization method (OMM)}{subsubsection.6.12.4}{}}
\newlabel{OMM!UseCholesky}{{6.12.4}{80}{Orbital minimization method (OMM)}{subsubsection.6.12.4}{}}
\newlabel{OMM!Use2D}{{6.12.4}{80}{Orbital minimization method (OMM)}{subsubsection.6.12.4}{}}
\newlabel{OMM!UseSparse}{{6.12.4}{80}{Orbital minimization method (OMM)}{subsubsection.6.12.4}{}}
\newlabel{OMM!Precon}{{6.12.4}{81}{Orbital minimization method (OMM)}{subsubsection.6.12.4}{}}
\newlabel{OMM!PreconFirstStep}{{6.12.4}{81}{Orbital minimization method (OMM)}{subsubsection.6.12.4}{}}
\newlabel{OMM!Diagon}{{6.12.4}{81}{Orbital minimization method (OMM)}{subsubsection.6.12.4}{}}
\newlabel{OMM!DiagonFirstStep}{{6.12.4}{81}{Orbital minimization method (OMM)}{subsubsection.6.12.4}{}}
\newlabel{OMM!BlockSize}{{6.12.4}{81}{Orbital minimization method (OMM)}{subsubsection.6.12.4}{}}
\newlabel{OMM!TPreconScale}{{6.12.4}{81}{Orbital minimization method (OMM)}{subsubsection.6.12.4}{}}
\newlabel{OMM!RelTol}{{6.12.4}{81}{Orbital minimization method (OMM)}{subsubsection.6.12.4}{}}
\newlabel{OMM!Eigenvalues}{{6.12.4}{82}{Orbital minimization method (OMM)}{subsubsection.6.12.4}{}}
\newlabel{OMM!WriteCoeffs}{{6.12.4}{82}{Orbital minimization method (OMM)}{subsubsection.6.12.4}{}}
\newlabel{OMM!ReadCoeffs}{{6.12.4}{82}{Orbital minimization method (OMM)}{subsubsection.6.12.4}{}}
\newlabel{OMM!LongOutput}{{6.12.4}{82}{Orbital minimization method (OMM)}{subsubsection.6.12.4}{}}
\@writefile{toc}{\contentsline {subsubsection}{\numberline {6.12.5}Order(N) calculations}{82}{subsubsection.6.12.5}}
\newlabel{SolverON}{{6.12.5}{82}{Order(N) calculations}{subsubsection.6.12.5}{}}
\newlabel{ON.functional}{{6.12.5}{82}{Order(N) calculations}{subsubsection.6.12.5}{}}
\newlabel{ON.MaxNumIter}{{6.12.5}{82}{Order(N) calculations}{subsubsection.6.12.5}{}}
\newlabel{ON.Etol}{{6.12.5}{82}{Order(N) calculations}{subsubsection.6.12.5}{}}
\newlabel{ON.eta}{{6.12.5}{83}{Order(N) calculations}{subsubsection.6.12.5}{}}
\newlabel{ON.eta.alpha}{{6.12.5}{83}{Order(N) calculations}{subsubsection.6.12.5}{}}
\newlabel{ON.eta.beta}{{6.12.5}{83}{Order(N) calculations}{subsubsection.6.12.5}{}}
\newlabel{ON.RcLWF}{{6.12.5}{83}{Order(N) calculations}{subsubsection.6.12.5}{}}
\newlabel{ON.ChemicalPotential}{{6.12.5}{83}{Order(N) calculations}{subsubsection.6.12.5}{}}
\newlabel{ON.ChemicalPotential.Use}{{6.12.5}{83}{Order(N) calculations}{subsubsection.6.12.5}{}}
\newlabel{ON.ChemicalPotential.Rc}{{6.12.5}{83}{Order(N) calculations}{subsubsection.6.12.5}{}}
\newlabel{ON.ChemicalPotential.Temperature}{{6.12.5}{83}{Order(N) calculations}{subsubsection.6.12.5}{}}
\newlabel{ON.ChemicalPotential.Order}{{6.12.5}{83}{Order(N) calculations}{subsubsection.6.12.5}{}}
\newlabel{ON.LowerMemory}{{6.12.5}{84}{Order(N) calculations}{subsubsection.6.12.5}{}}
\@writefile{toc}{\contentsline {paragraph}{Output of localized wavefunctions}{84}{section*.4}}
\newlabel{ON.UseSaveLWF}{{6.12.5}{84}{Output of localized wavefunctions}{section*.4}{}}
\@writefile{toc}{\contentsline {subsection}{\numberline {6.13}The CheSS solver}{84}{subsection.6.13}}
\newlabel{SolverCheSS}{{6.13}{84}{The CheSS solver}{subsection.6.13}{}}
\@writefile{toc}{\contentsline {subsubsection}{\numberline {6.13.1}Input parameters}{84}{subsubsection.6.13.1}}
\newlabel{CheSS!Buffer!Kernel}{{6.13.1}{84}{Input parameters}{subsubsection.6.13.1}{}}
\newlabel{CheSS!Buffer!Mult}{{6.13.1}{84}{Input parameters}{subsubsection.6.13.1}{}}
\newlabel{CheSS!Fscale}{{6.13.1}{84}{Input parameters}{subsubsection.6.13.1}{}}
\newlabel{CheSS!FscaleLowerbound}{{6.13.1}{84}{Input parameters}{subsubsection.6.13.1}{}}
\newlabel{CheSS!FscaleUpperbound}{{6.13.1}{84}{Input parameters}{subsubsection.6.13.1}{}}
\citation{Lin2014}
\newlabel{CheSS!evlowH}{{6.13.1}{85}{Input parameters}{subsubsection.6.13.1}{}}
\newlabel{CheSS!evhighH}{{6.13.1}{85}{Input parameters}{subsubsection.6.13.1}{}}
\newlabel{CheSS!evlowS}{{6.13.1}{85}{Input parameters}{subsubsection.6.13.1}{}}
\newlabel{CheSS!evhighS}{{6.13.1}{85}{Input parameters}{subsubsection.6.13.1}{}}
\@writefile{toc}{\contentsline {subsection}{\numberline {6.14}The PEXSI solver}{85}{subsection.6.14}}
\newlabel{SolverPEXSI}{{6.14}{85}{The PEXSI solver}{subsection.6.14}{}}
\@writefile{toc}{\contentsline {subsubsection}{\numberline {6.14.1}Pole handling}{85}{subsubsection.6.14.1}}
\newlabel{PEXSI!NumPoles}{{6.14.1}{86}{Pole handling}{subsubsection.6.14.1}{}}
\newlabel{PEXSI!deltaE}{{6.14.1}{86}{Pole handling}{subsubsection.6.14.1}{}}
\newlabel{PEXSI!Gap}{{6.14.1}{86}{Pole handling}{subsubsection.6.14.1}{}}
\@writefile{toc}{\contentsline {subsubsection}{\numberline {6.14.2}Parallel environment and control options}{86}{subsubsection.6.14.2}}
\newlabel{MPI!Nprocs.SIESTA}{{6.14.2}{86}{Parallel environment and control options}{subsubsection.6.14.2}{}}
\newlabel{PEXSI!NP-per-pole}{{6.14.2}{86}{Parallel environment and control options}{subsubsection.6.14.2}{}}
\newlabel{PEXSI!Ordering}{{6.14.2}{86}{Parallel environment and control options}{subsubsection.6.14.2}{}}
\newlabel{PEXSI!NP-symbfact}{{6.14.2}{87}{Parallel environment and control options}{subsubsection.6.14.2}{}}
\newlabel{PEXSI!Verbosity}{{6.14.2}{87}{Parallel environment and control options}{subsubsection.6.14.2}{}}
\@writefile{toc}{\contentsline {subsubsection}{\numberline {6.14.3}Electron tolerance and the PEXSI solver}{87}{subsubsection.6.14.3}}
\newlabel{PEXSI!num-electron-tolerance}{{6.14.3}{87}{Electron tolerance and the PEXSI solver}{subsubsection.6.14.3}{}}
\newlabel{PEXSI!num-electron-tolerance-lower-bound}{{6.14.3}{87}{Electron tolerance and the PEXSI solver}{subsubsection.6.14.3}{}}
\newlabel{PEXSI!num-electron-tolerance-upper-bound}{{6.14.3}{87}{Electron tolerance and the PEXSI solver}{subsubsection.6.14.3}{}}
\newlabel{PEXSI!mu-max-iter}{{6.14.3}{87}{Electron tolerance and the PEXSI solver}{subsubsection.6.14.3}{}}
\newlabel{PEXSI!mu}{{6.14.3}{88}{Electron tolerance and the PEXSI solver}{subsubsection.6.14.3}{}}
\newlabel{PEXSI!mu-pexsi-safeguard}{{6.14.3}{88}{Electron tolerance and the PEXSI solver}{subsubsection.6.14.3}{}}
\@writefile{toc}{\contentsline {subsubsection}{\numberline {6.14.4}Inertia-counting}{88}{subsubsection.6.14.4}}
\newlabel{PEXSI!Inertia-Counts}{{6.14.4}{88}{Inertia-counting}{subsubsection.6.14.4}{}}
\newlabel{PEXSI!mu-min}{{6.14.4}{88}{Inertia-counting}{subsubsection.6.14.4}{}}
\newlabel{PEXSI!mu-max}{{6.14.4}{88}{Inertia-counting}{subsubsection.6.14.4}{}}
\newlabel{PEXSI!safe-dDmax-no-inertia}{{6.14.4}{89}{Inertia-counting}{subsubsection.6.14.4}{}}
\newlabel{PEXSI!lateral-expansion-inertia}{{6.14.4}{89}{Inertia-counting}{subsubsection.6.14.4}{}}
\newlabel{PEXSI!Inertia-mu-tolerance}{{6.14.4}{89}{Inertia-counting}{subsubsection.6.14.4}{}}
\newlabel{PEXSI!Inertia-max-iter}{{6.14.4}{89}{Inertia-counting}{subsubsection.6.14.4}{}}
\newlabel{PEXSI!Inertia-min-num-shifts}{{6.14.4}{89}{Inertia-counting}{subsubsection.6.14.4}{}}
\newlabel{PEXSI!Inertia-energy-width-tolerance}{{6.14.4}{89}{Inertia-counting}{subsubsection.6.14.4}{}}
\@writefile{toc}{\contentsline {subsubsection}{\numberline {6.14.5}Re-use of $\mu $ information accross iterations}{89}{subsubsection.6.14.5}}
\newlabel{PEXSI!safe-width-ic-bracket}{{6.14.5}{89}{Re-use of \texorpdfstring {$\mu $}{u} information accross iterations}{subsubsection.6.14.5}{}}
\newlabel{PEXSI!safe-dDmax-ef-inertia}{{6.14.5}{89}{Re-use of \texorpdfstring {$\mu $}{u} information accross iterations}{subsubsection.6.14.5}{}}
\newlabel{PEXSI!safe-dDmax-ef-solver}{{6.14.5}{90}{Re-use of \texorpdfstring {$\mu $}{u} information accross iterations}{subsubsection.6.14.5}{}}
\newlabel{PEXSI!safe-width-solver-bracket}{{6.14.5}{90}{Re-use of \texorpdfstring {$\mu $}{u} information accross iterations}{subsubsection.6.14.5}{}}
\@writefile{toc}{\contentsline {subsubsection}{\numberline {6.14.6}Calculation of the density of states by inertia-counting}{90}{subsubsection.6.14.6}}
\newlabel{pexsi-dos}{{6.14.6}{90}{Calculation of the density of states by inertia-counting}{subsubsection.6.14.6}{}}
\newlabel{PEXSI!DOS}{{6.14.6}{90}{Calculation of the density of states by inertia-counting}{subsubsection.6.14.6}{}}
\newlabel{PEXSI!DOS!Emin}{{6.14.6}{90}{Calculation of the density of states by inertia-counting}{subsubsection.6.14.6}{}}
\newlabel{PEXSI!DOS!Emax}{{6.14.6}{90}{Calculation of the density of states by inertia-counting}{subsubsection.6.14.6}{}}
\newlabel{PEXSI!DOS!Ef.Reference}{{6.14.6}{90}{Calculation of the density of states by inertia-counting}{subsubsection.6.14.6}{}}
\newlabel{PEXSI!DOS!NPoints}{{6.14.6}{90}{Calculation of the density of states by inertia-counting}{subsubsection.6.14.6}{}}
\@writefile{toc}{\contentsline {subsubsection}{\numberline {6.14.7}Calculation of the LDOS by selected-inversion}{91}{subsubsection.6.14.7}}
\newlabel{pexsi-ldos}{{6.14.7}{91}{Calculation of the LDOS by selected-inversion}{subsubsection.6.14.7}{}}
\newlabel{PEXSI!LDOS}{{6.14.7}{91}{Calculation of the LDOS by selected-inversion}{subsubsection.6.14.7}{}}
\newlabel{PEXSI!LDOS!Energy}{{6.14.7}{91}{Calculation of the LDOS by selected-inversion}{subsubsection.6.14.7}{}}
\newlabel{PEXSI!LDOS!Broadening}{{6.14.7}{91}{Calculation of the LDOS by selected-inversion}{subsubsection.6.14.7}{}}
\newlabel{PEXSI!LDOS!NP-per-pole}{{6.14.7}{91}{Calculation of the LDOS by selected-inversion}{subsubsection.6.14.7}{}}
\@writefile{toc}{\contentsline {subsection}{\numberline {6.15}Band-structure analysis}{91}{subsection.6.15}}
\newlabel{sec:band-structure}{{6.15}{91}{Band-structure analysis}{subsection.6.15}{}}
\newlabel{BandLinesScale}{{6.15}{91}{Band-structure analysis}{subsection.6.15}{}}
\newlabel{BandLines}{{6.15}{92}{Band-structure analysis}{subsection.6.15}{}}
\newlabel{BandPoints}{{6.15}{92}{Band-structure analysis}{subsection.6.15}{}}
\newlabel{WriteKbands}{{6.15}{92}{Band-structure analysis}{subsection.6.15}{}}
\newlabel{WriteBands}{{6.15}{92}{Band-structure analysis}{subsection.6.15}{}}
\@writefile{toc}{\contentsline {subsubsection}{\numberline {6.15.1}Format of the .bands file}{92}{subsubsection.6.15.1}}
\@writefile{toc}{\contentsline {subsubsection}{\numberline {6.15.2}Output of wavefunctions associated to bands}{93}{subsubsection.6.15.2}}
\newlabel{sec:wf-bands}{{6.15.2}{93}{Output of wavefunctions associated to bands}{subsubsection.6.15.2}{}}
\newlabel{WFS.Write.For.Bands}{{6.15.2}{93}{Output of wavefunctions associated to bands}{subsubsection.6.15.2}{}}
\newlabel{WFS.Band.Min}{{6.15.2}{93}{Output of wavefunctions associated to bands}{subsubsection.6.15.2}{}}
\newlabel{WFS.Band.Max}{{6.15.2}{93}{Output of wavefunctions associated to bands}{subsubsection.6.15.2}{}}
\@writefile{toc}{\contentsline {subsection}{\numberline {6.16}Output of selected wavefunctions}{93}{subsection.6.16}}
\newlabel{sec:wf-output-user}{{6.16}{93}{Output of selected wavefunctions}{subsection.6.16}{}}
\newlabel{WaveFuncKPointsScale}{{6.16}{93}{Output of selected wavefunctions}{subsection.6.16}{}}
\newlabel{WaveFuncKPoints}{{6.16}{94}{Output of selected wavefunctions}{subsection.6.16}{}}
\newlabel{WriteWaveFunctions}{{6.16}{94}{Output of selected wavefunctions}{subsection.6.16}{}}
\@writefile{toc}{\contentsline {subsection}{\numberline {6.17}Density of states}{94}{subsection.6.17}}
\newlabel{sec:dos}{{6.17}{94}{Density of states}{subsection.6.17}{}}
\@writefile{toc}{\contentsline {subsubsection}{\numberline {6.17.1}Total density of states}{94}{subsubsection.6.17.1}}
\newlabel{DOS.kgrid.?}{{6.17.1}{95}{Total density of states}{subsubsection.6.17.1}{}}
\@writefile{toc}{\contentsline {subsubsection}{\numberline {6.17.2}Partial (projected) density of states}{95}{subsubsection.6.17.2}}
\newlabel{ProjectedDensityOfStates}{{6.17.2}{95}{Partial (projected) density of states}{subsubsection.6.17.2}{}}
\newlabel{PDOS.kgrid.?}{{6.17.2}{96}{Partial (projected) density of states}{equation.6.14}{}}
\@writefile{toc}{\contentsline {subsubsection}{\numberline {6.17.3}Local density of states}{96}{subsubsection.6.17.3}}
\newlabel{LocalDensityOfStates}{{6.17.3}{96}{Local density of states}{subsubsection.6.17.3}{}}
\newlabel{LDOS.kgrid.?}{{6.17.3}{97}{Local density of states}{subsubsection.6.17.3}{}}
\@writefile{toc}{\contentsline {subsection}{\numberline {6.18}Options for chemical analysis}{97}{subsection.6.18}}
\@writefile{toc}{\contentsline {subsubsection}{\numberline {6.18.1}Mulliken charges and overlap populations}{97}{subsubsection.6.18.1}}
\newlabel{WriteMullikenPop}{{6.18.1}{97}{Mulliken charges and overlap populations}{subsubsection.6.18.1}{}}
\newlabel{MullikenInSCF}{{6.18.1}{97}{Mulliken charges and overlap populations}{subsubsection.6.18.1}{}}
\newlabel{SpinInSCF}{{6.18.1}{97}{Mulliken charges and overlap populations}{subsubsection.6.18.1}{}}
\@writefile{toc}{\contentsline {subsubsection}{\numberline {6.18.2}Voronoi and Hirshfeld atomic population analysis}{97}{subsubsection.6.18.2}}
\newlabel{WriteHirshfeldPop}{{6.18.2}{97}{Voronoi and Hirshfeld atomic population analysis}{subsubsection.6.18.2}{}}
\newlabel{WriteVoronoiPop}{{6.18.2}{97}{Voronoi and Hirshfeld atomic population analysis}{subsubsection.6.18.2}{}}
\newlabel{PartialChargesAtEveryGeometry}{{6.18.2}{98}{Voronoi and Hirshfeld atomic population analysis}{subsubsection.6.18.2}{}}
\newlabel{PartialChargesAtEverySCFStep}{{6.18.2}{98}{Voronoi and Hirshfeld atomic population analysis}{subsubsection.6.18.2}{}}
\@writefile{toc}{\contentsline {subsubsection}{\numberline {6.18.3}Crystal-Orbital overlap and hamilton populations (COOP/COHP)}{98}{subsubsection.6.18.3}}
\newlabel{sec:coop}{{6.18.3}{98}{Crystal-Orbital overlap and hamilton populations (COOP/COHP)}{subsubsection.6.18.3}{}}
\newlabel{COOP.Write}{{6.18.3}{98}{Crystal-Orbital overlap and hamilton populations (COOP/COHP)}{subsubsection.6.18.3}{}}
\newlabel{WFS.Energy.Min}{{6.18.3}{99}{Crystal-Orbital overlap and hamilton populations (COOP/COHP)}{subsubsection.6.18.3}{}}
\newlabel{WFS.Energy.Max}{{6.18.3}{99}{Crystal-Orbital overlap and hamilton populations (COOP/COHP)}{subsubsection.6.18.3}{}}
\@writefile{toc}{\contentsline {subsection}{\numberline {6.19}Optical properties}{99}{subsection.6.19}}
\newlabel{OpticalCalculation}{{6.19}{99}{Optical properties}{subsection.6.19}{}}
\newlabel{Optical.Energy.Minimum}{{6.19}{99}{Optical properties}{subsection.6.19}{}}
\newlabel{Optical.Energy.Maximum}{{6.19}{99}{Optical properties}{subsection.6.19}{}}
\newlabel{Optical.Broaden}{{6.19}{99}{Optical properties}{subsection.6.19}{}}
\newlabel{Optical.Scissor}{{6.19}{99}{Optical properties}{subsection.6.19}{}}
\newlabel{Optical.NumberOfBands}{{6.19}{99}{Optical properties}{subsection.6.19}{}}
\newlabel{Optical.Mesh}{{6.19}{99}{Optical properties}{subsection.6.19}{}}
\newlabel{Optical.OffsetMesh}{{6.19}{100}{Optical properties}{subsection.6.19}{}}
\newlabel{Optical.PolarizationType}{{6.19}{100}{Optical properties}{subsection.6.19}{}}
\newlabel{Optical.Vector}{{6.19}{100}{Optical properties}{subsection.6.19}{}}
\@writefile{toc}{\contentsline {subsection}{\numberline {6.20}Macroscopic polarization}{100}{subsection.6.20}}
\newlabel{sec:macroscopic-polarization}{{6.20}{100}{Macroscopic polarization}{subsection.6.20}{}}
\newlabel{PolarizationGrids}{{6.20}{100}{Macroscopic polarization}{subsection.6.20}{}}
\newlabel{pol_formula}{{15}{100}{Macroscopic polarization}{equation.6.15}{}}
\newlabel{BornCharge}{{6.20}{101}{Macroscopic polarization}{equation.6.16}{}}
\newlabel{eq:effective_charge}{{17}{102}{Macroscopic polarization}{equation.6.17}{}}
\@writefile{toc}{\contentsline {subsection}{\numberline {6.21}Maximally Localized Wannier Functions}{102}{subsection.6.21}}
\@writefile{toc}{\contentsline {subsubsection}{\numberline {6.21.1}\program {wannier90} as a postprocessing tool}{102}{subsubsection.6.21.1}}
\newlabel{Siesta2Wannier90.WriteMmn}{{6.21.1}{103}{\program {wannier90} as a postprocessing tool}{subsubsection.6.21.1}{}}
\newlabel{Siesta2Wannier90.WriteAmn}{{6.21.1}{103}{\program {wannier90} as a postprocessing tool}{subsubsection.6.21.1}{}}
\newlabel{Siesta2Wannier90.WriteEig}{{6.21.1}{103}{\program {wannier90} as a postprocessing tool}{subsubsection.6.21.1}{}}
\newlabel{Siesta2Wannier90.WriteUnk}{{6.21.1}{103}{\program {wannier90} as a postprocessing tool}{subsubsection.6.21.1}{}}
\newlabel{Siesta2Wannier90.UnkGrid1}{{6.21.1}{103}{\program {wannier90} as a postprocessing tool}{equation.6.18}{}}
\newlabel{Siesta2Wannier90.UnkGrid2}{{6.21.1}{103}{\program {wannier90} as a postprocessing tool}{equation.6.18}{}}
\newlabel{Siesta2Wannier90.UnkGrid3}{{6.21.1}{104}{\program {wannier90} as a postprocessing tool}{equation.6.18}{}}
\newlabel{Siesta2Wannier90.UnkGridBinary}{{6.21.1}{104}{\program {wannier90} as a postprocessing tool}{equation.6.18}{}}
\newlabel{Siesta2Wannier90.NumberOfBands}{{6.21.1}{104}{\program {wannier90} as a postprocessing tool}{equation.6.18}{}}
\newlabel{Siesta2Wannier90.NumberOfBandsUp}{{6.21.1}{104}{\program {wannier90} as a postprocessing tool}{equation.6.18}{}}
\newlabel{Siesta2Wannier90.NumberOfBandsDown}{{6.21.1}{104}{\program {wannier90} as a postprocessing tool}{equation.6.18}{}}
\@writefile{toc}{\contentsline {subsubsection}{\numberline {6.21.2}\program {wannier90} called as a library within \program {siesta}}{104}{subsubsection.6.21.2}}
\newlabel{NumberOfBandManifoldsForWannier}{{6.21.2}{105}{\program {wannier90} called as a library within \program {siesta}}{subsubsection.6.21.2}{}}
\newlabel{WannierManifolds}{{6.21.2}{105}{\program {wannier90} called as a library within \program {siesta}}{subsubsection.6.21.2}{}}
\newlabel{WannierProjectors}{{6.21.2}{106}{\program {wannier90} called as a library within \program {siesta}}{subsubsection.6.21.2}{}}
\newlabel{Wannier90.in.SIESTA.compute.unk}{{6.21.2}{107}{\program {wannier90} called as a library within \program {siesta}}{subsubsection.6.21.2}{}}
\newlabel{kMeshforWannier}{{6.21.2}{107}{\program {wannier90} called as a library within \program {siesta}}{subsubsection.6.21.2}{}}
\@writefile{toc}{\contentsline {subsection}{\numberline {6.22}Systems with net charge or dipole, and electric fields}{108}{subsection.6.22}}
\newlabel{NetCharge}{{6.22}{108}{Systems with net charge or dipole, and electric fields}{subsection.6.22}{}}
\newlabel{SimulateDoping}{{6.22}{108}{Systems with net charge or dipole, and electric fields}{subsection.6.22}{}}
\newlabel{ExternalElectricField}{{6.22}{108}{Systems with net charge or dipole, and electric fields}{subsection.6.22}{}}
\newlabel{SlabDipoleCorrection}{{6.22}{108}{Systems with net charge or dipole, and electric fields}{subsection.6.22}{}}
\citation{Papior2016a}
\newlabel{Geometry!Hartree}{{6.22}{109}{Systems with net charge or dipole, and electric fields}{subsection.6.22}{}}
\citation{Papior2016a}
\newlabel{Geometry!Charge}{{6.22}{110}{Systems with net charge or dipole, and electric fields}{subsection.6.22}{}}
\@writefile{toc}{\contentsline {subsection}{\numberline {6.23}Output of charge densities and potentials on the grid}{111}{subsection.6.23}}
\newlabel{SaveRho}{{6.23}{111}{Output of charge densities and potentials on the grid}{subsection.6.23}{}}
\newlabel{SaveDeltaRho}{{6.23}{111}{Output of charge densities and potentials on the grid}{subsection.6.23}{}}
\newlabel{SaveRhoXC}{{6.23}{111}{Output of charge densities and potentials on the grid}{subsection.6.23}{}}
\newlabel{SaveElectrostaticPotential}{{6.23}{111}{Output of charge densities and potentials on the grid}{subsection.6.23}{}}
\newlabel{SaveNeutralAtomPotential}{{6.23}{111}{Output of charge densities and potentials on the grid}{subsection.6.23}{}}
\newlabel{SaveTotalPotential}{{6.23}{111}{Output of charge densities and potentials on the grid}{subsection.6.23}{}}
\newlabel{SaveIonicCharge}{{6.23}{112}{Output of charge densities and potentials on the grid}{subsection.6.23}{}}
\newlabel{SaveTotalCharge}{{6.23}{112}{Output of charge densities and potentials on the grid}{subsection.6.23}{}}
\newlabel{SaveBaderCharge}{{6.23}{112}{Output of charge densities and potentials on the grid}{subsection.6.23}{}}
\newlabel{AnalyzeChargeDensityOnly}{{6.23}{113}{Output of charge densities and potentials on the grid}{subsection.6.23}{}}
\newlabel{SaveInitialChargeDensity}{{6.23}{113}{Output of charge densities and potentials on the grid}{subsection.6.23}{}}
\@writefile{toc}{\contentsline {subsection}{\numberline {6.24}Auxiliary Force field}{113}{subsection.6.24}}
\newlabel{MM!Potentials}{{6.24}{113}{Auxiliary Force field}{subsection.6.24}{}}
\newlabel{MM!Cutoff}{{6.24}{114}{Auxiliary Force field}{subsection.6.24}{}}
\newlabel{MM!UnitsEnergy}{{6.24}{114}{Auxiliary Force field}{subsection.6.24}{}}
\newlabel{MM!UnitsDistance}{{6.24}{114}{Auxiliary Force field}{subsection.6.24}{}}
\newlabel{MM!Grimme.D}{{6.24}{114}{Auxiliary Force field}{subsection.6.24}{}}
\newlabel{MM!Grimme.S6}{{6.24}{114}{Auxiliary Force field}{subsection.6.24}{}}
\@writefile{toc}{\contentsline {subsection}{\numberline {6.25}Parallel options}{114}{subsection.6.25}}
\newlabel{BlockSize}{{6.25}{114}{Parallel options}{subsection.6.25}{}}
\newlabel{ProcessorY}{{6.25}{114}{Parallel options}{subsection.6.25}{}}
\@writefile{toc}{\contentsline {subsubsection}{\numberline {6.25.1}Parallel decompositions for O(N)}{114}{subsubsection.6.25.1}}
\newlabel{parallel-on}{{6.25.1}{114}{Parallel decompositions for O(N)}{subsubsection.6.25.1}{}}
\newlabel{UseDomainDecomposition}{{6.25.1}{115}{Parallel decompositions for O(N)}{subsubsection.6.25.1}{}}
\newlabel{UseSpatialDecomposition}{{6.25.1}{115}{Parallel decompositions for O(N)}{subsubsection.6.25.1}{}}
\newlabel{RcSpatial}{{6.25.1}{115}{Parallel decompositions for O(N)}{subsubsection.6.25.1}{}}
\@writefile{toc}{\contentsline {subsection}{\numberline {6.26}Efficiency options}{115}{subsection.6.26}}
\newlabel{DirectPhi}{{6.26}{115}{Efficiency options}{subsection.6.26}{}}
\@writefile{toc}{\contentsline {subsection}{\numberline {6.27}Memory, CPU-time, and Wall time accounting options}{115}{subsection.6.27}}
\newlabel{AllocReportLevel}{{6.27}{115}{Memory, CPU-time, and Wall time accounting options}{subsection.6.27}{}}
\newlabel{AllocReportThreshold}{{6.27}{116}{Memory, CPU-time, and Wall time accounting options}{subsection.6.27}{}}
\newlabel{TimerReportThreshold}{{6.27}{116}{Memory, CPU-time, and Wall time accounting options}{subsection.6.27}{}}
\newlabel{UseTreeTimer}{{6.27}{116}{Memory, CPU-time, and Wall time accounting options}{subsection.6.27}{}}
\newlabel{UseParallelTimer}{{6.27}{116}{Memory, CPU-time, and Wall time accounting options}{subsection.6.27}{}}
\newlabel{TimingSplitScfSteps}{{6.27}{116}{Memory, CPU-time, and Wall time accounting options}{subsection.6.27}{}}
\newlabel{MaxWalltime}{{6.27}{116}{Memory, CPU-time, and Wall time accounting options}{subsection.6.27}{}}
\newlabel{MaxWalltime!Slack}{{6.27}{116}{Memory, CPU-time, and Wall time accounting options}{subsection.6.27}{}}
\@writefile{toc}{\contentsline {subsection}{\numberline {6.28}The catch-all option UseSaveData}{116}{subsection.6.28}}
\newlabel{UseSaveData}{{6.28}{117}{The catch-all option UseSaveData}{subsection.6.28}{}}
\@writefile{toc}{\contentsline {subsection}{\numberline {6.29}Output of information for Denchar}{117}{subsection.6.29}}
\newlabel{Write!Denchar}{{6.29}{117}{Output of information for Denchar}{subsection.6.29}{}}
\@writefile{toc}{\contentsline {subsection}{\numberline {6.30}NetCDF (CDF4) output file}{117}{subsection.6.30}}
\newlabel{cdf-output}{{6.30}{117}{NetCDF (CDF4) output file}{subsection.6.30}{}}
\newlabel{CDF!Save}{{6.30}{117}{NetCDF (CDF4) output file}{subsection.6.30}{}}
\newlabel{CDF!Compress}{{6.30}{117}{NetCDF (CDF4) output file}{subsection.6.30}{}}
\newlabel{CDF!MPI}{{6.30}{117}{NetCDF (CDF4) output file}{subsection.6.30}{}}
\newlabel{CDF!Grid.Precision}{{6.30}{118}{NetCDF (CDF4) output file}{subsection.6.30}{}}
\@writefile{toc}{\contentsline {section}{\numberline {7}STRUCTURAL RELAXATION, PHONONS, AND MOLECULAR DYNAMICS}{118}{section.7}}
\newlabel{MD.TypeOfRun}{{7}{118}{STRUCTURAL RELAXATION, PHONONS, AND MOLECULAR DYNAMICS}{section.7}{}}
\newlabel{MD.TypeOfRun!CG}{{7}{118}{STRUCTURAL RELAXATION, PHONONS, AND MOLECULAR DYNAMICS}{section.7}{}}
\newlabel{MD.TypeOfRun!Broyden}{{7}{118}{STRUCTURAL RELAXATION, PHONONS, AND MOLECULAR DYNAMICS}{section.7}{}}
\newlabel{MD.TypeOfRun!FIRE}{{7}{118}{STRUCTURAL RELAXATION, PHONONS, AND MOLECULAR DYNAMICS}{section.7}{}}
\newlabel{MD.TypeOfRun!Verlet}{{7}{118}{STRUCTURAL RELAXATION, PHONONS, AND MOLECULAR DYNAMICS}{section.7}{}}
\newlabel{MD.TypeOfRun!Nose}{{7}{118}{STRUCTURAL RELAXATION, PHONONS, AND MOLECULAR DYNAMICS}{section.7}{}}
\newlabel{MD.TypeOfRun!ParrinelloRahman}{{7}{118}{STRUCTURAL RELAXATION, PHONONS, AND MOLECULAR DYNAMICS}{section.7}{}}
\newlabel{MD.TypeOfRun!NoseParrinelloRahman}{{7}{118}{STRUCTURAL RELAXATION, PHONONS, AND MOLECULAR DYNAMICS}{section.7}{}}
\newlabel{MD.TypeOfRun!Anneal}{{7}{118}{STRUCTURAL RELAXATION, PHONONS, AND MOLECULAR DYNAMICS}{section.7}{}}
\newlabel{MD.TypeOfRun!FC}{{7}{118}{STRUCTURAL RELAXATION, PHONONS, AND MOLECULAR DYNAMICS}{section.7}{}}
\newlabel{MD.TypeOfRun!Master}{{7}{118}{STRUCTURAL RELAXATION, PHONONS, AND MOLECULAR DYNAMICS}{section.7}{}}
\newlabel{MD.TypeOfRun!Forces}{{7}{118}{STRUCTURAL RELAXATION, PHONONS, AND MOLECULAR DYNAMICS}{section.7}{}}
\newlabel{MD.TypeOfRun!Lua}{{7}{119}{STRUCTURAL RELAXATION, PHONONS, AND MOLECULAR DYNAMICS}{section.7}{}}
\newlabel{MD.TypeOfRun!TDED}{{7}{119}{STRUCTURAL RELAXATION, PHONONS, AND MOLECULAR DYNAMICS}{section.7}{}}
\@writefile{toc}{\contentsline {subsection}{\numberline {7.1}Compatibility with pre-v4 versions}{119}{subsection.7.1}}
\@writefile{toc}{\contentsline {subsection}{\numberline {7.2}Structural relaxation}{120}{subsection.7.2}}
\newlabel{MD.VariableCell}{{7.2}{120}{Structural relaxation}{subsection.7.2}{}}
\newlabel{MD.ConstantVolume}{{7.2}{120}{Structural relaxation}{subsection.7.2}{}}
\newlabel{MD.RelaxCellOnly}{{7.2}{120}{Structural relaxation}{subsection.7.2}{}}
\newlabel{MD.MaxForceTol}{{7.2}{120}{Structural relaxation}{subsection.7.2}{}}
\newlabel{MD.MaxStressTol}{{7.2}{121}{Structural relaxation}{subsection.7.2}{}}
\newlabel{MD.Steps}{{7.2}{121}{Structural relaxation}{subsection.7.2}{}}
\newlabel{MD.NumCGsteps}{{7.2}{121}{Structural relaxation}{subsection.7.2}{}}
\newlabel{MD.MaxDispl}{{7.2}{121}{Structural relaxation}{subsection.7.2}{}}
\newlabel{MD.MaxCGDispl}{{7.2}{121}{Structural relaxation}{subsection.7.2}{}}
\newlabel{MD.PreconditionVariableCell}{{7.2}{121}{Structural relaxation}{subsection.7.2}{}}
\newlabel{ZM.ForceTolLength}{{7.2}{121}{Structural relaxation}{subsection.7.2}{}}
\newlabel{ZM.ForceTolAngle}{{7.2}{121}{Structural relaxation}{subsection.7.2}{}}
\newlabel{ZM.MaxDisplLength}{{7.2}{121}{Structural relaxation}{subsection.7.2}{}}
\newlabel{ZM.MaxDisplAngle}{{7.2}{121}{Structural relaxation}{subsection.7.2}{}}
\@writefile{toc}{\contentsline {subsubsection}{\numberline {7.2.1}Conjugate-gradients optimization}{122}{subsubsection.7.2.1}}
\newlabel{MD.UseSaveCG}{{7.2.1}{122}{Conjugate-gradients optimization}{subsubsection.7.2.1}{}}
\@writefile{toc}{\contentsline {subsubsection}{\numberline {7.2.2}Broyden optimization}{122}{subsubsection.7.2.2}}
\newlabel{MD.Broyden!History.Steps}{{7.2.2}{122}{Broyden optimization}{subsubsection.7.2.2}{}}
\newlabel{MD.Broyden!Cycle.On.Maxit}{{7.2.2}{122}{Broyden optimization}{subsubsection.7.2.2}{}}
\newlabel{MD.Broyden!Initial.Inverse.Jacobian}{{7.2.2}{122}{Broyden optimization}{subsubsection.7.2.2}{}}
\@writefile{toc}{\contentsline {subsubsection}{\numberline {7.2.3}FIRE relaxation}{122}{subsubsection.7.2.3}}
\newlabel{MD.FIRE.TimeStep}{{7.2.3}{122}{FIRE relaxation}{subsubsection.7.2.3}{}}
\@writefile{toc}{\contentsline {subsection}{\numberline {7.3}Target stress options}{123}{subsection.7.3}}
\newlabel{MD.TargetPressure}{{7.3}{123}{Target stress options}{subsection.7.3}{}}
\newlabel{MD.TargetStress}{{7.3}{123}{Target stress options}{subsection.7.3}{}}
\newlabel{MD.RemoveIntramolecularPressure}{{7.3}{123}{Target stress options}{subsection.7.3}{}}
\@writefile{toc}{\contentsline {subsection}{\numberline {7.4}Molecular dynamics}{123}{subsection.7.4}}
\newlabel{MD.InitialTimeStep}{{7.4}{123}{Molecular dynamics}{subsection.7.4}{}}
\newlabel{MD.FinalTimeStep}{{7.4}{123}{Molecular dynamics}{subsection.7.4}{}}
\newlabel{MD.LengthTimeStep}{{7.4}{124}{Molecular dynamics}{subsection.7.4}{}}
\newlabel{MD.InitialTemperature}{{7.4}{124}{Molecular dynamics}{subsection.7.4}{}}
\newlabel{MD.TargetTemperature}{{7.4}{124}{Molecular dynamics}{subsection.7.4}{}}
\newlabel{MD.NoseMass}{{7.4}{124}{Molecular dynamics}{subsection.7.4}{}}
\newlabel{MD.ParrinelloRahmanMass}{{7.4}{124}{Molecular dynamics}{subsection.7.4}{}}
\newlabel{MD.AnnealOption}{{7.4}{124}{Molecular dynamics}{subsection.7.4}{}}
\newlabel{MD.TauRelax}{{7.4}{124}{Molecular dynamics}{subsection.7.4}{}}
\newlabel{MD.BulkModulus}{{7.4}{124}{Molecular dynamics}{subsection.7.4}{}}
\@writefile{toc}{\contentsline {subsection}{\numberline {7.5}Output options for dynamics}{125}{subsection.7.5}}
\newlabel{WriteCoorInitial}{{7.5}{125}{Output options for dynamics}{subsection.7.5}{}}
\newlabel{WriteCoorStep}{{7.5}{125}{Output options for dynamics}{subsection.7.5}{}}
\newlabel{WriteForces}{{7.5}{125}{Output options for dynamics}{subsection.7.5}{}}
\newlabel{WriteMDHistory}{{7.5}{125}{Output options for dynamics}{subsection.7.5}{}}
\newlabel{Write.OrbitalIndex}{{7.5}{126}{Output options for dynamics}{subsection.7.5}{}}
\@writefile{toc}{\contentsline {subsection}{\numberline {7.6}Restarting geometry optimizations and MD runs}{126}{subsection.7.6}}
\@writefile{toc}{\contentsline {subsection}{\numberline {7.7}Use of general constraints}{126}{subsection.7.7}}
\newlabel{Geometry!Constraints}{{7.7}{126}{Use of general constraints}{subsection.7.7}{}}
\@writefile{toc}{\contentsline {subsection}{\numberline {7.8}Phonon calculations}{129}{subsection.7.8}}
\newlabel{MD.FCDispl}{{7.8}{129}{Phonon calculations}{subsection.7.8}{}}
\newlabel{MD.FCFirst}{{7.8}{129}{Phonon calculations}{subsection.7.8}{}}
\newlabel{MD.FCLast}{{7.8}{129}{Phonon calculations}{subsection.7.8}{}}
\@writefile{toc}{\contentsline {section}{\numberline {8}LDA+U}{130}{section.8}}
\newlabel{sec:lda+u}{{8}{130}{LDA+U}{section.8}{}}
\newlabel{LDAU.ProjectorGenerationMethod}{{8}{130}{LDA+U}{section.8}{}}
\newlabel{LDAU.EnergyShift}{{8}{130}{LDA+U}{section.8}{}}
\newlabel{LDAU.CutoffNorm}{{8}{130}{LDA+U}{section.8}{}}
\newlabel{LDAU.Proj}{{8}{130}{LDA+U}{section.8}{}}
\newlabel{LDAU.FirstIteration}{{8}{131}{LDA+U}{section.8}{}}
\newlabel{LDAU.ThresholdTol}{{8}{131}{LDA+U}{section.8}{}}
\newlabel{LDAU.PopTol}{{8}{131}{LDA+U}{section.8}{}}
\newlabel{LDAU.PotentialShift}{{8}{131}{LDA+U}{section.8}{}}
\@writefile{toc}{\contentsline {section}{\numberline {9}RT-TDDFT}{132}{section.9}}
\newlabel{sec:tddft}{{9}{132}{RT-TDDFT}{section.9}{}}
\@writefile{toc}{\contentsline {subsection}{\numberline {9.1}Brief description}{132}{subsection.9.1}}
\@writefile{toc}{\contentsline {subsection}{\numberline {9.2}Partial Occupations}{132}{subsection.9.2}}
\@writefile{toc}{\contentsline {subsection}{\numberline {9.3}Input options for RT-TDDFT}{133}{subsection.9.3}}
\newlabel{TDED!WF.Initialize}{{9.3}{133}{Input options for RT-TDDFT}{subsection.9.3}{}}
\newlabel{TDED!Nsteps}{{9.3}{133}{Input options for RT-TDDFT}{subsection.9.3}{}}
\newlabel{TDED!TimeStep}{{9.3}{133}{Input options for RT-TDDFT}{subsection.9.3}{}}
\newlabel{TDED!Extrapolate}{{9.3}{133}{Input options for RT-TDDFT}{subsection.9.3}{}}
\newlabel{TDED!Extrapolate.Substeps}{{9.3}{133}{Input options for RT-TDDFT}{subsection.9.3}{}}
\newlabel{TDED!Inverse.Linear}{{9.3}{133}{Input options for RT-TDDFT}{subsection.9.3}{}}
\newlabel{TDED!WF.Save}{{9.3}{133}{Input options for RT-TDDFT}{equation.9.19}{}}
\newlabel{TDED!Write.Etot}{{9.3}{133}{Input options for RT-TDDFT}{equation.9.19}{}}
\newlabel{TDED!Write.Dipole}{{9.3}{133}{Input options for RT-TDDFT}{equation.9.19}{}}
\newlabel{TDED!Write.Eig}{{9.3}{133}{Input options for RT-TDDFT}{equation.9.19}{}}
\newlabel{TDED!Saverho}{{9.3}{134}{Input options for RT-TDDFT}{equation.9.19}{}}
\newlabel{TDED!Nsaverho}{{9.3}{134}{Input options for RT-TDDFT}{equation.9.19}{}}
\@writefile{toc}{\contentsline {section}{\numberline {10}External control of \siesta }{134}{section.10}}
\newlabel{sec:lua}{{10}{134}{External control of \texorpdfstring {\siesta }{SIESTA}}{section.10}{}}
\newlabel{Lua!Script}{{10}{134}{External control of \texorpdfstring {\siesta }{SIESTA}}{section.10}{}}
\newlabel{Lua!Debug}{{10}{136}{External control of \texorpdfstring {\siesta }{SIESTA}}{section.10}{}}
\newlabel{Lua!Debug.MPI}{{10}{136}{External control of \texorpdfstring {\siesta }{SIESTA}}{section.10}{}}
\newlabel{Lua!Interactive}{{10}{136}{External control of \texorpdfstring {\siesta }{SIESTA}}{section.10}{}}
\citation{sisl}
\@writefile{toc}{\contentsline {subsection}{\numberline {10.1}Examples of Lua programs}{137}{subsection.10.1}}
\@writefile{toc}{\contentsline {subsection}{\numberline {10.2}External MD/relaxation methods}{137}{subsection.10.2}}
\@writefile{toc}{\contentsline {section}{\numberline {11}TRANSIESTA}{137}{section.11}}
\newlabel{sec:transiesta}{{11}{137}{TRANSIESTA}{section.11}{}}
\@writefile{toc}{\contentsline {subsection}{\numberline {11.1}Source code structure}{137}{subsection.11.1}}
\@writefile{toc}{\contentsline {subsection}{\numberline {11.2}Compilation}{137}{subsection.11.2}}
\citation{Brandbyge2002,Papior2017}
\citation{Brandbyge2002}
\citation{Papior2017}
\@writefile{toc}{\contentsline {subsection}{\numberline {11.3}Brief description}{138}{subsection.11.3}}
\@writefile{toc}{\contentsline {subsection}{\numberline {11.4}Electrodes}{140}{subsection.11.4}}
\@writefile{toc}{\contentsline {subsubsection}{\numberline {11.4.1}Matching coordinates}{140}{subsubsection.11.4.1}}
\citation{sisl}
\citation{sisl}
\citation{Sancho1985}
\@writefile{toc}{\contentsline {paragraph}{Tile}{141}{section*.5}}
\@writefile{toc}{\contentsline {paragraph}{Repeat}{141}{section*.6}}
\@writefile{toc}{\contentsline {subsubsection}{\numberline {11.4.2}Principal layer interactions}{141}{subsubsection.11.4.2}}
\@writefile{toc}{\contentsline {subsection}{\numberline {11.5}\tsiesta \  Options}{142}{subsection.11.5}}
\@writefile{toc}{\contentsline {subsubsection}{\numberline {11.5.1}Quick and dirty}{142}{subsubsection.11.5.1}}
\@writefile{toc}{\contentsline {subsubsection}{\numberline {11.5.2}General options}{143}{subsubsection.11.5.2}}
\newlabel{TS!SolutionMethod}{{11.5.2}{143}{General options}{subsubsection.11.5.2}{}}
\newlabel{TS!SolutionMethod!BTD}{{11.5.2}{143}{General options}{subsubsection.11.5.2}{}}
\newlabel{TS!SolutionMethod!MUMPS}{{11.5.2}{143}{General options}{subsubsection.11.5.2}{}}
\newlabel{TS!SolutionMethod!full}{{11.5.2}{143}{General options}{subsubsection.11.5.2}{}}
\newlabel{TS!Voltage}{{11.5.2}{143}{General options}{subsubsection.11.5.2}{}}
\newlabel{TS!Atoms.Buffer}{{11.5.2}{143}{General options}{subsubsection.11.5.2}{}}
\citation{Papior2017}
\newlabel{TS!ElectronicTemperature}{{11.5.2}{144}{General options}{subsubsection.11.5.2}{}}
\newlabel{TS!SCF.Initialize}{{11.5.2}{144}{General options}{subsubsection.11.5.2}{}}
\newlabel{TS!Fermi.Initial}{{11.5.2}{144}{General options}{subsubsection.11.5.2}{}}
\newlabel{TS!Weight.Method}{{11.5.2}{144}{General options}{subsubsection.11.5.2}{}}
\newlabel{TS!Weight.Method!orb-orb}{{11.5.2}{145}{General options}{equation.11.20}{}}
\newlabel{TS!Weight.Method!tr-atom-atom}{{11.5.2}{145}{General options}{equation.11.20}{}}
\newlabel{TS!Weight.Method!tr-atom-orb}{{11.5.2}{145}{General options}{equation.11.21}{}}
\newlabel{TS!Weight.Method!sum-atom-atom}{{11.5.2}{145}{General options}{equation.11.22}{}}
\newlabel{TS!Weight.Method!sum-atom-orb}{{11.5.2}{145}{General options}{equation.11.23}{}}
\newlabel{TS!Weight.Method!mean}{{11.5.2}{145}{General options}{equation.11.24}{}}
\newlabel{TS!Weight.k.Method}{{11.5.2}{145}{General options}{equation.11.24}{}}
\newlabel{TS!Forces}{{11.5.2}{145}{General options}{equation.11.24}{}}
\newlabel{TS!ChargeCorrection}{{11.5.2}{145}{General options}{equation.11.24}{}}
\newlabel{eq:fermi-shift}{{25}{146}{General options}{equation.11.25}{}}
\newlabel{TS!ChargeCorrection!Factor}{{11.5.2}{146}{General options}{equation.11.25}{}}
\newlabel{TS!ChargeCorrection!Fermi.Tolerance}{{11.5.2}{146}{General options}{equation.11.25}{}}
\newlabel{TS!ChargeCorrection!Fermi.Max}{{11.5.2}{146}{General options}{equation.11.25}{}}
\newlabel{TS!HS.Save}{{11.5.2}{146}{General options}{equation.11.25}{}}
\newlabel{TS!HS.Save!true}{{11.5.2}{146}{General options}{equation.11.25}{}}
\newlabel{TS!DE.Save}{{11.5.2}{146}{General options}{equation.11.25}{}}
\newlabel{TS!DE.Save!true}{{11.5.2}{146}{General options}{equation.11.25}{}}
\newlabel{TS!S.Save}{{11.5.2}{146}{General options}{equation.11.25}{}}
\newlabel{TS!SIESTA.Only}{{11.5.2}{147}{General options}{equation.11.25}{}}
\newlabel{TS!Analyze}{{11.5.2}{147}{General options}{equation.11.25}{}}
\newlabel{TS!Analyze.Graphviz}{{11.5.2}{147}{General options}{equation.11.25}{}}
\@writefile{toc}{\contentsline {subsection}{\numberline {11.6}$k$-point sampling}{148}{subsection.11.6}}
\newlabel{TS.kgrid!MonkhorstPack}{{11.6}{148}{\texorpdfstring {$k$}{k}-point sampling}{subsection.11.6}{}}
\newlabel{TS.kgrid!Cutoff}{{11.6}{148}{\texorpdfstring {$k$}{k}-point sampling}{subsection.11.6}{}}
\newlabel{TS.kgrid!File}{{11.6}{148}{\texorpdfstring {$k$}{k}-point sampling}{subsection.11.6}{}}
\@writefile{toc}{\contentsline {subsubsection}{\numberline {11.6.1}Algorithm specific options}{148}{subsubsection.11.6.1}}
\newlabel{TS!BTD!Pivot}{{11.6.1}{148}{Algorithm specific options}{subsubsection.11.6.1}{}}
\newlabel{TS!BTD!Optimize}{{11.6.1}{149}{Algorithm specific options}{subsubsection.11.6.1}{}}
\newlabel{TS!BTD!Guess1.Min}{{11.6.1}{149}{Algorithm specific options}{subsubsection.11.6.1}{}}
\newlabel{TS!BTD!Guess1.Max}{{11.6.1}{149}{Algorithm specific options}{subsubsection.11.6.1}{}}
\newlabel{TS!BTD!Spectral}{{11.6.1}{149}{Algorithm specific options}{subsubsection.11.6.1}{}}
\newlabel{TS!MUMPS!Ordering}{{11.6.1}{149}{Algorithm specific options}{subsubsection.11.6.1}{}}
\newlabel{TS!MUMPS!Memory}{{11.6.1}{149}{Algorithm specific options}{subsubsection.11.6.1}{}}
\newlabel{TS!MUMPS!BlockingFactor}{{11.6.1}{149}{Algorithm specific options}{subsubsection.11.6.1}{}}
\@writefile{toc}{\contentsline {subsubsection}{\numberline {11.6.2}Poisson solution for fixed boundary conditions}{150}{subsubsection.11.6.2}}
\newlabel{TS!Poisson}{{11.6.2}{150}{Poisson solution for fixed boundary conditions}{subsubsection.11.6.2}{}}
\newlabel{TS!Poisson!ramp-cell}{{11.6.2}{150}{Poisson solution for fixed boundary conditions}{subsubsection.11.6.2}{}}
\newlabel{TS!Poisson!<file>}{{11.6.2}{150}{Poisson solution for fixed boundary conditions}{subsubsection.11.6.2}{}}
\newlabel{TS!Poisson!elec-box}{{11.6.2}{150}{Poisson solution for fixed boundary conditions}{subsubsection.11.6.2}{}}
\newlabel{TS!Hartree.Fix}{{11.6.2}{150}{Poisson solution for fixed boundary conditions}{subsubsection.11.6.2}{}}
\newlabel{TS!Hartree.Fix.Elec}{{11.6.2}{151}{Poisson solution for fixed boundary conditions}{subsubsection.11.6.2}{}}
\newlabel{TS!Hartree.Fix!Frac}{{11.6.2}{151}{Poisson solution for fixed boundary conditions}{subsubsection.11.6.2}{}}
\newlabel{TS!Hartree.Offset}{{11.6.2}{151}{Poisson solution for fixed boundary conditions}{subsubsection.11.6.2}{}}
\newlabel{TS!Elec.<>!Hartree.Extend}{{11.6.2}{151}{Poisson solution for fixed boundary conditions}{subsubsection.11.6.2}{}}
\@writefile{toc}{\contentsline {subsubsection}{\numberline {11.6.3}Electrode description options}{151}{subsubsection.11.6.3}}
\newlabel{TS!Elecs}{{11.6.3}{151}{Electrode description options}{subsubsection.11.6.3}{}}
\newlabel{TS!Elec.<>}{{11.6.3}{151}{Electrode description options}{subsubsection.11.6.3}{}}
\citation{1905.11113}
\newlabel{TS!Elec.<>!HS}{{11.6.3}{152}{Electrode description options}{subsubsection.11.6.3}{}}
\newlabel{TS!Elec.<>!semi-inf-direction}{{11.6.3}{152}{Electrode description options}{subsubsection.11.6.3}{}}
\newlabel{TS!Elec.<>!chemical-potential}{{11.6.3}{152}{Electrode description options}{subsubsection.11.6.3}{}}
\newlabel{TS!Elec.<>!electrode-position}{{11.6.3}{152}{Electrode description options}{subsubsection.11.6.3}{}}
\newlabel{TS!Elec.<>!used-atoms}{{11.6.3}{152}{Electrode description options}{subsubsection.11.6.3}{}}
\newlabel{TS!Elec.<>!Bulk}{{11.6.3}{152}{Electrode description options}{subsubsection.11.6.3}{}}
\newlabel{TS!Elec.<>!DM-update}{{11.6.3}{152}{Electrode description options}{subsubsection.11.6.3}{}}
\newlabel{TS!Elec.<>!DM-update!none}{{11.6.3}{152}{Electrode description options}{subsubsection.11.6.3}{}}
\newlabel{TS!Elec.<>!DM-update!all}{{11.6.3}{152}{Electrode description options}{subsubsection.11.6.3}{}}
\newlabel{TS!Elec.<>!DM-init}{{11.6.3}{152}{Electrode description options}{subsubsection.11.6.3}{}}
\newlabel{TS!Elec.<>!Gf}{{11.6.3}{153}{Electrode description options}{subsubsection.11.6.3}{}}
\newlabel{TS!Elec.<>!Gf-Reuse}{{11.6.3}{153}{Electrode description options}{subsubsection.11.6.3}{}}
\newlabel{TS!Elec.<>!Eta}{{11.6.3}{153}{Electrode description options}{subsubsection.11.6.3}{}}
\newlabel{TS!Elec.<>!Accuracy}{{11.6.3}{153}{Electrode description options}{subsubsection.11.6.3}{}}
\newlabel{TS!Elec.<>!DE}{{11.6.3}{153}{Electrode description options}{subsubsection.11.6.3}{}}
\newlabel{TS!Elec.<>!Bloch}{{11.6.3}{153}{Electrode description options}{subsubsection.11.6.3}{}}
\newlabel{TS!Elec.<>!pre-expand}{{11.6.3}{153}{Electrode description options}{subsubsection.11.6.3}{}}
\newlabel{TS!Elec.<>!Out-of-core}{{11.6.3}{153}{Electrode description options}{subsubsection.11.6.3}{}}
\newlabel{TS!Elec.<>!delta-Ef}{{11.6.3}{153}{Electrode description options}{subsubsection.11.6.3}{}}
\newlabel{TS!Elec.<>!V-fraction}{{11.6.3}{154}{Electrode description options}{subsubsection.11.6.3}{}}
\newlabel{TS!Elec.<>!check-kgrid}{{11.6.3}{154}{Electrode description options}{equation.11.26}{}}
\newlabel{TS!Elecs!Bulk}{{11.6.3}{154}{Electrode description options}{equation.11.26}{}}
\newlabel{TS!Elecs!Eta}{{11.6.3}{154}{Electrode description options}{equation.11.26}{}}
\newlabel{TS!Elecs!Accuracy}{{11.6.3}{154}{Electrode description options}{equation.11.26}{}}
\newlabel{TS!Elecs!Neglect.Principal}{{11.6.3}{154}{Electrode description options}{equation.11.26}{}}
\newlabel{TS!Elecs!Gf.Reuse}{{11.6.3}{154}{Electrode description options}{equation.11.26}{}}
\newlabel{TS!Elecs!Out-of-core}{{11.6.3}{154}{Electrode description options}{equation.11.26}{}}
\newlabel{TS!Elecs!DM.Update}{{11.6.3}{155}{Electrode description options}{equation.11.26}{}}
\newlabel{TS!Elecs!DM.Init}{{11.6.3}{155}{Electrode description options}{equation.11.26}{}}
\newlabel{TS!Elecs!Coord.EPS}{{11.6.3}{155}{Electrode description options}{equation.11.26}{}}
\@writefile{toc}{\contentsline {subsubsection}{\numberline {11.6.4}Chemical potentials}{155}{subsubsection.11.6.4}}
\newlabel{sec:ts:chem-pot}{{11.6.4}{155}{Chemical potentials}{subsubsection.11.6.4}{}}
\newlabel{TS!ChemPots}{{11.6.4}{155}{Chemical potentials}{subsubsection.11.6.4}{}}
\newlabel{TS!ChemPot.<>}{{11.6.4}{155}{Chemical potentials}{subsubsection.11.6.4}{}}
\newlabel{TS!ChemPot.<>!chemical-shift}{{11.6.4}{155}{Chemical potentials}{subsubsection.11.6.4}{}}
\newlabel{TS!ChemPot.<>!mu}{{11.6.4}{155}{Chemical potentials}{subsubsection.11.6.4}{}}
\newlabel{TS!ChemPot.<>!contour.eq}{{11.6.4}{155}{Chemical potentials}{subsubsection.11.6.4}{}}
\citation{Ozaki2010}
\newlabel{TS!ChemPot.<>!ElectronicTemperature}{{11.6.4}{156}{Chemical potentials}{subsubsection.11.6.4}{}}
\newlabel{TS!ChemPot.<>!Temp}{{11.6.4}{156}{Chemical potentials}{subsubsection.11.6.4}{}}
\newlabel{TS!ChemPot.<>!kT}{{11.6.4}{156}{Chemical potentials}{subsubsection.11.6.4}{}}
\newlabel{TS!ChemPot.<>!contour.eq.pole}{{11.6.4}{156}{Chemical potentials}{subsubsection.11.6.4}{}}
\newlabel{TS!ChemPot.<>!contour.eq.pole.N}{{11.6.4}{156}{Chemical potentials}{subsubsection.11.6.4}{}}
\@writefile{toc}{\contentsline {subsubsection}{\numberline {11.6.5}Complex contour integration options}{157}{subsubsection.11.6.5}}
\newlabel{TS!Contours!Eq.Pole}{{11.6.5}{157}{Complex contour integration options}{subsubsection.11.6.5}{}}
\newlabel{TS!Contours!Eq.Pole.N}{{11.6.5}{157}{Complex contour integration options}{subsubsection.11.6.5}{}}
\newlabel{TS!Contour.<>}{{11.6.5}{157}{Complex contour integration options}{subsubsection.11.6.5}{}}
\newlabel{TS!Contour.<>!part}{{11.6.5}{157}{Complex contour integration options}{subsubsection.11.6.5}{}}
\newlabel{TS!Contour.<>!from}{{11.6.5}{157}{Complex contour integration options}{subsubsection.11.6.5}{}}
\newlabel{TS!Contour.<>!points}{{11.6.5}{157}{Complex contour integration options}{subsubsection.11.6.5}{}}
\newlabel{TS!Contour.<>!delta}{{11.6.5}{157}{Complex contour integration options}{subsubsection.11.6.5}{}}
\newlabel{TS!Contour.<>!method}{{11.6.5}{158}{Complex contour integration options}{subsubsection.11.6.5}{}}
\newlabel{TS!Contour.<>!opt}{{11.6.5}{158}{Complex contour integration options}{subsubsection.11.6.5}{}}
\@writefile{toc}{\contentsline {subsubsection}{\numberline {11.6.6}Bias contour integration options}{159}{subsubsection.11.6.6}}
\newlabel{TS!Contours.nEq!Eta}{{11.6.6}{159}{Bias contour integration options}{subsubsection.11.6.6}{}}
\newlabel{TS!Contours.nEq!Fermi.Cutoff}{{11.6.6}{159}{Bias contour integration options}{subsubsection.11.6.6}{}}
\newlabel{TS!Contours.nEq}{{11.6.6}{159}{Bias contour integration options}{subsubsection.11.6.6}{}}
\newlabel{TS!Contour.nEq.<>}{{11.6.6}{159}{Bias contour integration options}{subsubsection.11.6.6}{}}
\@writefile{toc}{\contentsline {subsection}{\numberline {11.7}Output}{159}{subsection.11.7}}
\citation{sisl}
\@writefile{toc}{\contentsline {subsection}{\numberline {11.8}Utilities for analysis: \tbtrans }{160}{subsection.11.8}}
\@writefile{toc}{\contentsline {section}{\numberline {12}ANALYSIS TOOLS}{160}{section.12}}
\@writefile{toc}{\contentsline {section}{\numberline {13}SCRIPTING}{160}{section.13}}
\@writefile{toc}{\contentsline {section}{\numberline {14}PROBLEM HANDLING}{161}{section.14}}
\@writefile{toc}{\contentsline {subsection}{\numberline {14.1}Error and warning messages}{161}{subsection.14.1}}
\@writefile{toc}{\contentsline {section}{\numberline {15}REPORTING BUGS}{161}{section.15}}
\@writefile{toc}{\contentsline {section}{\numberline {16}ACKNOWLEDGMENTS}{161}{section.16}}
\@writefile{toc}{\contentsline {section}{\numberline {17}APPENDIX: Physical unit names recognized by FDF}{163}{section.17}}
\newlabel{sec:fdf-units}{{17}{163}{APPENDIX: Physical unit names recognized by FDF}{section.17}{}}
\@writefile{toc}{\contentsline {section}{\numberline {18}APPENDIX: XML Output}{165}{section.18}}
\@writefile{toc}{\contentsline {subsection}{\numberline {18.1}Controlling XML output}{165}{subsection.18.1}}
\newlabel{XML!Write}{{18.1}{165}{Controlling XML output}{subsection.18.1}{}}
\@writefile{toc}{\contentsline {subsection}{\numberline {18.2}Converting XML to XHTML}{165}{subsection.18.2}}
\@writefile{toc}{\contentsline {section}{\numberline {19}APPENDIX: Selection of precision for storage}{166}{section.19}}
\@writefile{toc}{\contentsline {section}{\numberline {20}APPENDIX: Data structures and reference counting}{167}{section.20}}
\bibstyle{plainnat}
\bibdata{siesta}
\bibcite{ELPA-1}{{1}{2011}{{Auckenthaler et~al.}}{{Auckenthaler, Blum, Bungartz, Huckle, Johanni, Krämer, Lang, Lederer, and Willems}}}
\bibcite{Banerjee2016}{{2}{2016}{{Banerjee et~al.}}{{Banerjee, Suryanarayana, and Pask}}}
\bibcite{Bowler2000}{{3}{2000}{{Bowler and Gillan}}{{}}}
\bibcite{Brandbyge2002}{{4}{2002}{{Brandbyge et~al.}}{{Brandbyge, Mozos, Ordej{\'{o}}n, Taylor, and Stokbro}}}
\bibcite{Kresse1996}{{5}{1996}{{Kresse and Furthm{\"{u}}ller}}{{}}}
\bibcite{Lin2014}{{6}{2014}{{Lin et~al.}}{{Lin, Garc{\'{i}}a, Huhs, and Yang}}}
\bibcite{ELPA}{{7}{2014}{{Marek et~al.}}{{Marek, Blum, Johanni, Havu, Lang, Auckenthaler, Heinecke, Bungartz, and Lederer}}}
\bibcite{Ozaki2010}{{8}{2010}{{Ozaki et~al.}}{{Ozaki, Nishio, and Kino}}}
\bibcite{Papior2016a}{{9}{2016}{{Papior et~al.}}{{Papior, Gunst, Stradi, and Brandbyge}}}
\bibcite{Papior2017}{{10}{2017}{{Papior et~al.}}{{Papior, Lorente, Frederiksen, Garc{\'{i}}a, and Brandbyge}}}
\@writefile{toc}{\contentsline {section}{Bibliography}{168}{section.20}}
\bibcite{1905.11113}{{11}{2019}{{Papior et~al.}}{{Papior, Calogero, Leitherer, and Brandbyge}}}
\bibcite{sisl}{{12}{2018}{{Papior}}{{}}}
\bibcite{Sancho1985}{{13}{1985}{{Sancho et~al.}}{{Sancho, Sancho, and Rubio}}}
\bibcite{SOLER20091134}{{14}{2009}{{Soler and Anglada}}{{}}}
