
     Program PWSCF v.5.4.0 starts on  3Mar2020 at 21:28:19 

     This program is part of the open-source Quantum ESPRESSO suite
     for quantum simulation of materials; please cite
         "P. Giannozzi et al., J. Phys.:Condens. Matter 21 395502 (2009);
          URL http://www.quantum-espresso.org", 
     in publications or presentations arising from this work. More details at
     http://www.quantum-espresso.org/quote

     Serial version
     Waiting for input...
     Reading input from standard input
     Message from routine read_cards :
     DEPRECATED: no units specified in ATOMIC_POSITIONS card
     Message from routine read_cards :
     ATOMIC_POSITIONS: units set to alat

     Current dimensions of program PWSCF are:
     Max number of different atomic species (ntypx) = 10
     Max number of k-points (npk) =  40000
     Max angular momentum in pseudopotentials (lmaxx) =  3

     G-vector sticks info
     --------------------
     sticks:   dense  smooth     PW     G-vecs:    dense   smooth      PW
     Sum         593     593    185                11019    11019    1935



     bravais-lattice index     =            1
     lattice parameter (alat)  =      10.2000  a.u.
     unit-cell volume          =    1061.2080 (a.u.)^3
     number of atoms/cell      =            7
     number of atomic types    =            1
     number of electrons       =        28.00
     number of Kohn-Sham states=           14
     kinetic-energy cutoff     =      18.0000  Ry
     charge density cutoff     =      72.0000  Ry
     convergence threshold     =      1.0E-08
     mixing beta               =       0.7000
     number of iterations used =            8  plain     mixing
     Exchange-correlation      =  SLA  PW   PBX  PBC ( 1  4  3  4 0 0)
     nstep                     =           50


     celldm(1)=  10.200000  celldm(2)=   0.000000  celldm(3)=   0.000000
     celldm(4)=   0.000000  celldm(5)=   0.000000  celldm(6)=   0.000000

     crystal axes: (cart. coord. in units of alat)
               a(1) = (   1.000000   0.000000   0.000000 )  
               a(2) = (   0.000000   1.000000   0.000000 )  
               a(3) = (   0.000000   0.000000   1.000000 )  

     reciprocal axes: (cart. coord. in units 2 pi/alat)
               b(1) = (  1.000000  0.000000  0.000000 )  
               b(2) = (  0.000000  1.000000  0.000000 )  
               b(3) = (  0.000000  0.000000  1.000000 )  


     PseudoPot. # 1 for Si read from file:
     ./Si.rel-pbe-rrkj.UPF
     MD5 check sum: ca11b4d55ae68281b492616f935c6016
     Pseudo is Norm-conserving, Zval =  4.0
     Generated by new atomic code, or converted to UPF format
     Using radial grid of 1141 points,  2 beta functions with: 
                l(1) =   0
                l(2) =   1

     atomic species   valence    mass     pseudopotential
        Si             4.00    28.08600     Si( 1.00)

      6 Sym. Ops. (no inversion) found
          (note: 18 additional sym.ops. were found but ignored
           their fractional translations are incommensurate with FFT grid)


   Cartesian axes

     site n.     atom                  positions (alat units)
         1           Si  tau(   1) = (   0.0000000   0.0000000   0.0000000  )
         2           Si  tau(   2) = (   0.5000000   0.5000000   0.0000000  )
         3           Si  tau(   3) = (   0.5000000   0.0000000   0.5000000  )
         4           Si  tau(   4) = (   0.0000000   0.5000000   0.5000000  )
         5           Si  tau(   5) = (   0.7500000   0.7500000   0.2500000  )
         6           Si  tau(   6) = (   0.7500000   0.2500000   0.7500000  )
         7           Si  tau(   7) = (   0.2500000   0.7500000   0.7500000  )

     number of k points=    13
                       cart. coord. in units 2pi/alat
        k(    1) = (   0.0000000   0.0000000   0.0000000), wk =   0.0312500
        k(    2) = (   0.0000000   0.0000000   0.2500000), wk =   0.1875000
        k(    3) = (   0.0000000   0.0000000  -0.5000000), wk =   0.0937500
        k(    4) = (   0.0000000   0.2500000   0.2500000), wk =   0.1875000
        k(    5) = (   0.0000000   0.2500000  -0.5000000), wk =   0.3750000
        k(    6) = (   0.0000000  -0.5000000  -0.5000000), wk =   0.0937500
        k(    7) = (   0.2500000   0.2500000   0.2500000), wk =   0.0625000
        k(    8) = (   0.2500000   0.2500000  -0.5000000), wk =   0.1875000
        k(    9) = (   0.2500000  -0.5000000  -0.5000000), wk =   0.1875000
        k(   10) = (  -0.5000000  -0.5000000  -0.5000000), wk =   0.0312500
        k(   11) = (  -0.2500000   0.0000000   0.2500000), wk =   0.1875000
        k(   12) = (   0.2500000  -0.2500000   0.2500000), wk =   0.1875000
        k(   13) = (   0.2500000  -0.2500000  -0.5000000), wk =   0.1875000

     Dense  grid:    11019 G-vectors     FFT dimensions: (  27,  27,  27)

     Largest allocated arrays     est. size (Mb)     dimensions
        Kohn-Sham Wavefunctions         0.30 Mb     (    1406,   14)
        NL pseudopotentials             0.60 Mb     (    1406,   28)
        Each V/rho on FFT grid          0.30 Mb     (   19683)
        Each G-vector array             0.08 Mb     (   11019)
        G-vector shells                 0.00 Mb     (     160)
     Largest temporary arrays     est. size (Mb)     dimensions
        Auxiliary wavefunctions         1.20 Mb     (    1406,   56)
        Each subspace H/S matrix        0.05 Mb     (      56,   56)
        Each <psi_i|beta_j> matrix      0.01 Mb     (      28,   14)
        Arrays for rho mixing           2.40 Mb     (   19683,    8)

     Initial potential from superposition of free atoms

     starting charge   27.99615, renormalised to   28.00000
     Starting wfc are   28 randomized atomic wfcs

     total cpu time spent up to now is        1.5 secs

     per-process dynamical memory:     5.1 Mb

     Self-consistent Calculation

     iteration #  1     ecut=    18.00 Ry     beta=0.70
     Davidson diagonalization with overlap
     ethr =  1.00E-02,  avg # of iterations =  2.0

     Threshold (ethr) on eigenvalues was too large:
     Diagonalizing with lowered threshold

     Davidson diagonalization with overlap
     ethr =  7.13E-04,  avg # of iterations =  1.6

     total cpu time spent up to now is        4.3 secs

     total energy              =     -54.86451470 Ry
     Harris-Foulkes estimate   =     -54.94240990 Ry
     estimated scf accuracy    <       0.20365091 Ry

     iteration #  2     ecut=    18.00 Ry     beta=0.70
     Davidson diagonalization with overlap
     ethr =  7.27E-04,  avg # of iterations =  2.2

     total cpu time spent up to now is        5.9 secs

     total energy              =     -54.88160241 Ry
     Harris-Foulkes estimate   =     -54.90996232 Ry
     estimated scf accuracy    <       0.05015409 Ry

     iteration #  3     ecut=    18.00 Ry     beta=0.70
     Davidson diagonalization with overlap
     ethr =  1.79E-04,  avg # of iterations =  2.8

     total cpu time spent up to now is        7.6 secs

     total energy              =     -54.89520619 Ry
     Harris-Foulkes estimate   =     -54.89941321 Ry
     estimated scf accuracy    <       0.00953927 Ry

     iteration #  4     ecut=    18.00 Ry     beta=0.70
     Davidson diagonalization with overlap
     ethr =  3.41E-05,  avg # of iterations =  2.4

     total cpu time spent up to now is        9.1 secs

     total energy              =     -54.89696170 Ry
     Harris-Foulkes estimate   =     -54.89700625 Ry
     estimated scf accuracy    <       0.00010701 Ry

     iteration #  5     ecut=    18.00 Ry     beta=0.70
     Davidson diagonalization with overlap
     ethr =  3.82E-07,  avg # of iterations =  4.7

     total cpu time spent up to now is       11.2 secs

     total energy              =     -54.89699426 Ry
     Harris-Foulkes estimate   =     -54.89705939 Ry
     estimated scf accuracy    <       0.00016457 Ry

     iteration #  6     ecut=    18.00 Ry     beta=0.70
     Davidson diagonalization with overlap
     ethr =  3.82E-07,  avg # of iterations =  4.5

     total cpu time spent up to now is       12.8 secs

     total energy              =     -54.89703005 Ry
     Harris-Foulkes estimate   =     -54.89703481 Ry
     estimated scf accuracy    <       0.00003591 Ry

     iteration #  7     ecut=    18.00 Ry     beta=0.70
     Davidson diagonalization with overlap
     ethr =  1.28E-07,  avg # of iterations =  1.0

     total cpu time spent up to now is       13.8 secs

     total energy              =     -54.89702330 Ry
     Harris-Foulkes estimate   =     -54.89703064 Ry
     estimated scf accuracy    <       0.00002197 Ry

     iteration #  8     ecut=    18.00 Ry     beta=0.70
     Davidson diagonalization with overlap
     ethr =  7.85E-08,  avg # of iterations =  3.0

     total cpu time spent up to now is       15.3 secs

     total energy              =     -54.89702692 Ry
     Harris-Foulkes estimate   =     -54.89702708 Ry
     estimated scf accuracy    <       0.00000094 Ry

     iteration #  9     ecut=    18.00 Ry     beta=0.70
     Davidson diagonalization with overlap
     ethr =  3.36E-09,  avg # of iterations =  4.1

     total cpu time spent up to now is       17.0 secs

     total energy              =     -54.89702716 Ry
     Harris-Foulkes estimate   =     -54.89702720 Ry
     estimated scf accuracy    <       0.00000011 Ry

     iteration # 10     ecut=    18.00 Ry     beta=0.70
     Davidson diagonalization with overlap
     ethr =  3.94E-10,  avg # of iterations =  3.8

     total cpu time spent up to now is       18.9 secs

     End of self-consistent calculation

          k = 0.0000 0.0000 0.0000 (  1357 PWs)   bands (ev):

    -6.5189  -2.7873  -2.7873  -2.3912  -2.3856  -2.3856   1.9353   2.2271
     2.2271   2.2298   3.4197   3.4210   3.4210   6.2680

          k = 0.0000 0.0000 0.2500 (  1346 PWs)   bands (ev):

    -6.2732  -4.1304  -2.7174  -2.3199  -2.3161  -0.9804   1.7476   1.9750
     1.9777   2.2095   2.7084   3.2314   3.2320   5.5927

          k = 0.0000 0.0000-0.5000 (  1406 PWs)   bands (ev):

    -5.7858  -5.0702  -2.6430  -2.2459  -2.2420   0.0424   1.3572   1.3953
     1.6732   1.6761   3.2500   3.2513   3.6022   4.1994

          k = 0.0000 0.2500 0.2500 (  1364 PWs)   bands (ev):

    -6.0308  -4.1973  -3.7101  -2.3949  -1.4860  -0.5995   1.0255   1.8917
     2.0083   2.3879   2.4052   3.3764   3.4564   4.6846

          k = 0.0000 0.2500-0.5000 (  1370 PWs)   bands (ev):

    -5.5380  -4.9320  -3.7263  -2.5265  -1.2124  -0.1023   0.8533   1.1305
     1.9999   2.2924   3.0023   3.0623   3.6155   4.1833

          k = 0.0000-0.5000-0.5000 (  1356 PWs)   bands (ev):

    -4.8767  -4.7586  -4.7570  -2.8611  -0.0808  -0.0754  -0.0736   1.1685
     1.8037   1.8052   3.2546   3.7170   3.7983   3.8658

          k = 0.2500 0.2500 0.2500 (  1382 PWs)   bands (ev):

    -5.7959  -4.0960  -4.0960  -2.7361  -0.9356  -0.9356   0.6374   1.7120
     1.7120   2.8816   2.8893   3.5950   3.5950   4.2905

          k = 0.2500 0.2500-0.5000 (  1378 PWs)   bands (ev):

    -5.3111  -4.8064  -3.9783  -2.7260  -1.2671  -0.6412   0.0856   1.7138
     2.4764   2.7237   3.0756   3.0861   3.5357   5.0831

          k = 0.2500-0.5000-0.5000 (  1360 PWs)   bands (ev):

    -4.7265  -4.6538  -4.6522  -2.8986  -0.9726  -0.8582  -0.8563   1.9383
     2.6418   2.9074   2.9091   3.7875   3.8929   5.4343

          k =-0.5000-0.5000-0.5000 (  1376 PWs)   bands (ev):

    -4.5336  -4.5312  -4.5312  -3.0260  -1.3869  -1.3842  -1.3842   1.3796
     3.8875   3.8875   3.8916   3.8916   3.8940   6.5984

          k =-0.2500 0.0000 0.2500 (  1364 PWs)   bands (ev):

    -6.0307  -4.1989  -3.7085  -2.3950  -1.4842  -0.6017   1.0250   1.8938
     2.0074   2.3858   2.4048   3.3769   3.4574   4.6873

          k = 0.2500-0.2500 0.2500 (  1382 PWs)   bands (ev):

    -5.7957  -4.0981  -4.0960  -2.7320  -0.9383  -0.9355   0.6377   1.7103
     1.7124   2.8792   2.8878   3.5966   3.5971   4.2959

          k = 0.2500-0.2500-0.5000 (  1378 PWs)   bands (ev):

    -5.3108  -4.8065  -3.9799  -2.7231  -1.2691  -0.6404   0.0852   1.7123
     2.4763   2.7248   3.0738   3.0866   3.5373   5.0863

     highest occupied level (ev):     6.5984

!    total energy              =     -54.89702719 Ry
     Harris-Foulkes estimate   =     -54.89702719 Ry
     estimated scf accuracy    <          2.5E-09 Ry

     The total energy is the sum of the following terms:

     one-electron contribution =      11.60675870 Ry
     hartree contribution      =       5.13657145 Ry
     xc contribution           =     -16.49041891 Ry
     ewald contribution        =     -55.14993842 Ry

     convergence has been achieved in  10 iterations

     Forces acting on atoms (Ry/au):

     atom    1 type  1   force =     0.00660306    0.00660306    0.00660306
     atom    2 type  1   force =    -0.00682459   -0.00682459    0.00661082
     atom    3 type  1   force =    -0.00682459    0.00661082   -0.00682459
     atom    4 type  1   force =     0.00661082   -0.00682459   -0.00682459
     atom    5 type  1   force =     0.00041642    0.00041642   -0.00039753
     atom    6 type  1   force =     0.00041642   -0.00039753    0.00041642
     atom    7 type  1   force =    -0.00039753    0.00041642    0.00041642

     Total force =     0.023300     Total SCF correction =     0.000037


     entering subroutine stress ...

          total   stress  (Ry/bohr**3)                   (kbar)     P=   -9.38
  -0.00006376  -0.00000281  -0.00000281         -9.38     -0.41     -0.41
  -0.00000281  -0.00006376  -0.00000281         -0.41     -9.38     -0.41
  -0.00000281  -0.00000281  -0.00006376         -0.41     -0.41     -9.38


     BFGS Geometry Optimization

     number of scf cycles    =   1
     number of bfgs steps    =   0

     energy   new            =     -54.8970271864 Ry

     new trust radius        =       0.0116984144 bohr
     new conv_thr            =       0.0000000100 Ry


ATOMIC_POSITIONS (alat)
Si       0.000647359   0.000647359   0.000647359
Si       0.499330923   0.499330923   0.000648119
Si       0.499330923   0.000648119   0.499330923
Si       0.000648119   0.499330923   0.499330923
Si       0.750040825   0.750040825   0.249961026
Si       0.750040825   0.249961026   0.750040825
Si       0.249961026   0.750040825   0.750040825



     Writing output data file silicon.save
     NEW-OLD atomic charge density approx. for the potential

     total cpu time spent up to now is       20.3 secs

     per-process dynamical memory:    10.0 Mb

     Self-consistent Calculation

     iteration #  1     ecut=    18.00 Ry     beta=0.70
     Davidson diagonalization with overlap
     ethr =  1.00E-06,  avg # of iterations =  4.1

     Threshold (ethr) on eigenvalues was too large:
     Diagonalizing with lowered threshold

     Davidson diagonalization with overlap
     ethr =  1.70E-08,  avg # of iterations =  3.5

     total cpu time spent up to now is       24.3 secs

     total energy              =     -54.89753745 Ry
     Harris-Foulkes estimate   =     -54.89753805 Ry
     estimated scf accuracy    <       0.00000528 Ry

     iteration #  2     ecut=    18.00 Ry     beta=0.70
     Davidson diagonalization with overlap
     ethr =  1.88E-08,  avg # of iterations =  2.0

     total cpu time spent up to now is       26.3 secs

     total energy              =     -54.89753786 Ry
     Harris-Foulkes estimate   =     -54.89753799 Ry
     estimated scf accuracy    <       0.00000053 Ry

     iteration #  3     ecut=    18.00 Ry     beta=0.70
     Davidson diagonalization with overlap
     ethr =  1.90E-09,  avg # of iterations =  3.9

     total cpu time spent up to now is       30.6 secs

     total energy              =     -54.89753795 Ry
     Harris-Foulkes estimate   =     -54.89753809 Ry
     estimated scf accuracy    <       0.00000030 Ry

     iteration #  4     ecut=    18.00 Ry     beta=0.70
     Davidson diagonalization with overlap
     ethr =  1.07E-09,  avg # of iterations =  4.5

     total cpu time spent up to now is       33.3 secs

     total energy              =     -54.89755353 Ry
     Harris-Foulkes estimate   =     -54.89755240 Ry
     estimated scf accuracy    <       0.00010538 Ry

     iteration #  5     ecut=    18.00 Ry     beta=0.70
     Davidson diagonalization with overlap
     ethr =  1.07E-09,  avg # of iterations =  1.6

     total cpu time spent up to now is       34.4 secs

     total energy              =     -54.89755277 Ry
     Harris-Foulkes estimate   =     -54.89755354 Ry
     estimated scf accuracy    <       0.00011001 Ry

     iteration #  6     ecut=    18.00 Ry     beta=0.70
     Davidson diagonalization with overlap
     ethr =  1.07E-09,  avg # of iterations =  1.0

     total cpu time spent up to now is       35.6 secs

     total energy              =     -54.89755463 Ry
     Harris-Foulkes estimate   =     -54.89755277 Ry
     estimated scf accuracy    <       0.00010791 Ry

     iteration #  7     ecut=    18.00 Ry     beta=0.70
     Davidson diagonalization with overlap
     ethr =  1.07E-09,  avg # of iterations =  2.9

     total cpu time spent up to now is       36.9 secs

     total energy              =     -54.89753988 Ry
     Harris-Foulkes estimate   =     -54.89755465 Ry
     estimated scf accuracy    <       0.00011605 Ry

     iteration #  8     ecut=    18.00 Ry     beta=0.70
     Davidson diagonalization with overlap
     ethr =  1.07E-09,  avg # of iterations =  6.0

     total cpu time spent up to now is       39.5 secs

     total energy              =     -54.89753862 Ry
     Harris-Foulkes estimate   =     -54.89754184 Ry
     estimated scf accuracy    <       0.00005052 Ry

     iteration #  9     ecut=    18.00 Ry     beta=0.70
     Davidson diagonalization with overlap
     ethr =  1.07E-09,  avg # of iterations =  4.1

     total cpu time spent up to now is       42.2 secs

     total energy              =     -54.89753407 Ry
     Harris-Foulkes estimate   =     -54.89753883 Ry
     estimated scf accuracy    <       0.00003446 Ry

     iteration # 10     ecut=    18.00 Ry     beta=0.70
     Davidson diagonalization with overlap
     ethr =  1.07E-09,  avg # of iterations =  4.6

     total cpu time spent up to now is       45.3 secs

     total energy              =     -54.89753039 Ry
     Harris-Foulkes estimate   =     -54.89753477 Ry
     estimated scf accuracy    <       0.00001301 Ry

     iteration # 11     ecut=    18.00 Ry     beta=0.70
     Davidson diagonalization with overlap
     ethr =  1.07E-09,  avg # of iterations =  6.3

     total cpu time spent up to now is       48.4 secs

     End of self-consistent calculation

          k = 0.0000 0.0000 0.0000 (  1357 PWs)   bands (ev):

    -6.5062  -2.7741  -2.7741  -2.3816  -2.3816  -2.3724   1.9167   2.2334
     2.2357   2.2357   3.4383   3.4383   3.4385   6.2678

          k = 0.0000 0.0000 0.2500 (  1346 PWs)   bands (ev):

    -6.2600  -4.1195  -2.7036  -2.3123  -2.3060  -0.9726   1.7510   1.9844
     1.9861   2.2020   2.7179   3.2469   3.2483   5.5851

          k = 0.0000 0.0000-0.5000 (  1406 PWs)   bands (ev):

    -5.7699  -5.0623  -2.6284  -2.2384  -2.2318   0.0392   1.3582   1.4196
     1.6840   1.6855   3.2664   3.2684   3.5961   4.1847

          k = 0.0000 0.2500 0.2500 (  1364 PWs)   bands (ev):

    -6.0171  -4.1880  -3.6958  -2.3886  -1.4743  -0.5937   1.0338   1.8998
     2.0130   2.3951   2.4110   3.3848   3.4717   4.6710

          k = 0.0000 0.2500-0.5000 (  1370 PWs)   bands (ev):

    -5.5221  -4.9227  -3.7124  -2.5233  -1.2020  -0.0994   0.8719   1.1386
     2.0022   2.3055   3.0053   3.0819   3.6166   4.1601

          k = 0.0000-0.5000-0.5000 (  1356 PWs)   bands (ev):

    -4.8581  -4.7477  -4.7446  -2.8634  -0.0695  -0.0681  -0.0602   1.1896
     1.8055   1.8060   3.2493   3.7440   3.7704   3.8704

          k = 0.2500 0.2500 0.2500 (  1382 PWs)   bands (ev):

    -5.7816  -4.0860  -4.0860  -2.7196  -0.9320  -0.9320   0.6459   1.7205
     1.7205   2.8768   2.8852   3.6149   3.6149   4.2870

          k = 0.2500 0.2500-0.5000 (  1378 PWs)   bands (ev):

    -5.2950  -4.7961  -3.9675  -2.7133  -1.2655  -0.6381   0.0979   1.7237
     2.4612   2.7282   3.0815   3.1088   3.5542   5.0784

          k = 0.2500-0.5000-0.5000 (  1360 PWs)   bands (ev):

    -4.7099  -4.6423  -4.6390  -2.8918  -0.9607  -0.8551  -0.8543   1.9208
     2.6652   2.9124   2.9136   3.8120   3.9011   5.4214

          k =-0.5000-0.5000-0.5000 (  1376 PWs)   bands (ev):

    -4.5204  -4.5204  -4.5153  -3.0049  -1.3846  -1.3846  -1.3840   1.3596
     3.8971   3.8997   3.8997   3.9155   3.9155   6.6003

          k =-0.2500 0.0000 0.2500 (  1364 PWs)   bands (ev):

    -6.0173  -4.1850  -3.6987  -2.3883  -1.4770  -0.5912   1.0353   1.8979
     2.0132   2.3978   2.4147   3.3819   3.4700   4.6654

          k = 0.2500-0.2500 0.2500 (  1382 PWs)   bands (ev):

    -5.7821  -4.0860  -4.0819  -2.7268  -0.9320  -0.9296   0.6495   1.7204
     1.7232   2.8786   2.8874   3.6120   3.6127   4.2761

          k = 0.2500-0.2500-0.5000 (  1378 PWs)   bands (ev):

    -5.2957  -4.7959  -3.9642  -2.7188  -1.2642  -0.6374   0.0995   1.7265
     2.4613   2.7255   3.0825   3.1094   3.5517   5.0725

     highest occupied level (ev):     6.6003

!    total energy              =     -54.89753230 Ry
     Harris-Foulkes estimate   =     -54.89753230 Ry
     estimated scf accuracy    <          5.8E-09 Ry

     The total energy is the sum of the following terms:

     one-electron contribution =      11.70270275 Ry
     hartree contribution      =       5.09204479 Ry
     xc contribution           =     -16.48408629 Ry
     ewald contribution        =     -55.20819354 Ry

     convergence has been achieved in  11 iterations

     Forces acting on atoms (Ry/au):

     atom    1 type  1   force =     0.00602916    0.00602916    0.00602916
     atom    2 type  1   force =    -0.00591033   -0.00591033    0.00585285
     atom    3 type  1   force =    -0.00591033    0.00585285   -0.00591033
     atom    4 type  1   force =     0.00585285   -0.00591033   -0.00591033
     atom    5 type  1   force =     0.00045401    0.00045401   -0.00096938
     atom    6 type  1   force =     0.00045401   -0.00096938    0.00045401
     atom    7 type  1   force =    -0.00096938    0.00045401    0.00045401

     Total force =     0.020627     Total SCF correction =     0.000070


     entering subroutine stress ...

          total   stress  (Ry/bohr**3)                   (kbar)     P=  -10.79
  -0.00007332   0.00000323   0.00000323        -10.79      0.48      0.48
   0.00000323  -0.00007332   0.00000323          0.48    -10.79      0.48
   0.00000323   0.00000323  -0.00007332          0.48      0.48    -10.79


     number of scf cycles    =   2
     number of bfgs steps    =   1

     energy   old            =     -54.8970271864 Ry
     energy   new            =     -54.8975322967 Ry

     CASE: energy  _new < energy  _old


     WARNING: bfgs curvature condition failed, Theta= 0.905
     new trust radius        =       0.0128682558 bohr
     new conv_thr            =       0.0000000005 Ry


ATOMIC_POSITIONS (alat)
Si       0.001375740   0.001375740   0.001375740
Si       0.498611138   0.498611138   0.001358491
Si       0.498611138   0.001358491   0.498611138
Si       0.001358491   0.498611138   0.498611138
Si       0.750094350   0.750094350   0.249854793
Si       0.750094350   0.249854793   0.750094350
Si       0.249854793   0.750094350   0.750094350



     Writing output data file silicon.save
     NEW-OLD atomic charge density approx. for the potential

     total cpu time spent up to now is       49.7 secs

     per-process dynamical memory:    10.0 Mb

     Self-consistent Calculation

     iteration #  1     ecut=    18.00 Ry     beta=0.70
     Davidson diagonalization with overlap
     ethr =  1.00E-06,  avg # of iterations =  3.8

     Threshold (ethr) on eigenvalues was too large:
     Diagonalizing with lowered threshold

     Davidson diagonalization with overlap
     ethr =  2.33E-08,  avg # of iterations =  3.4

     total cpu time spent up to now is       53.1 secs

     total energy              =     -54.89801893 Ry
     Harris-Foulkes estimate   =     -54.89801997 Ry
     estimated scf accuracy    <       0.00000681 Ry

     iteration #  2     ecut=    18.00 Ry     beta=0.70
     Davidson diagonalization with overlap
     ethr =  2.43E-08,  avg # of iterations =  2.9

     total cpu time spent up to now is       54.9 secs

     total energy              =     -54.89801894 Ry
     Harris-Foulkes estimate   =     -54.89802016 Ry
     estimated scf accuracy    <       0.00000229 Ry

     iteration #  3     ecut=    18.00 Ry     beta=0.70
     Davidson diagonalization with overlap
     ethr =  8.17E-09,  avg # of iterations =  4.0

     total cpu time spent up to now is       57.9 secs

     total energy              =     -54.89801948 Ry
     Harris-Foulkes estimate   =     -54.89802027 Ry
     estimated scf accuracy    <       0.00000214 Ry

     iteration #  4     ecut=    18.00 Ry     beta=0.70
     Davidson diagonalization with overlap
     ethr =  7.66E-09,  avg # of iterations =  2.9

     total cpu time spent up to now is       59.4 secs

     total energy              =     -54.89801985 Ry
     Harris-Foulkes estimate   =     -54.89801987 Ry
     estimated scf accuracy    <       0.00000004 Ry

     iteration #  5     ecut=    18.00 Ry     beta=0.70
     Davidson diagonalization with overlap
     ethr =  1.34E-10,  avg # of iterations =  3.9

     total cpu time spent up to now is       62.1 secs

     total energy              =     -54.89801987 Ry
     Harris-Foulkes estimate   =     -54.89801987 Ry
     estimated scf accuracy    <          3.7E-09 Ry

     iteration #  6     ecut=    18.00 Ry     beta=0.70
     Davidson diagonalization with overlap
     ethr =  1.32E-11,  avg # of iterations =  3.5

     total cpu time spent up to now is       64.0 secs

     End of self-consistent calculation

          k = 0.0000 0.0000 0.0000 (  1357 PWs)   bands (ev):

    -6.4925  -2.7596  -2.7596  -2.3710  -2.3710  -2.3644   1.8957   2.2418
     2.2431   2.2431   3.4572   3.4572   3.4586   6.2665

          k = 0.0000 0.0000 0.2500 (  1346 PWs)   bands (ev):

    -6.2458  -4.1076  -2.6886  -2.3016  -2.2972  -0.9642   1.7548   1.9943
     1.9957   2.1924   2.7291   3.2649   3.2649   5.5767

          k = 0.0000 0.0000-0.5000 (  1406 PWs)   bands (ev):

    -5.7525  -5.0537  -2.6126  -2.2277  -2.2231   0.0355   1.3595   1.4460
     1.6949   1.6965   3.2855   3.2862   3.5892   4.1685

          k = 0.0000 0.2500 0.2500 (  1364 PWs)   bands (ev):

    -6.0025  -4.1748  -3.6831  -2.3814  -1.4644  -0.5845   1.0444   1.9050
     2.0184   2.4064   2.4211   3.3916   3.4861   4.6514

          k = 0.0000 0.2500-0.5000 (  1370 PWs)   bands (ev):

    -5.5049  -4.9127  -3.6973  -2.5199  -1.1908  -0.0964   0.8921   1.1473
     2.0046   2.3200   3.0086   3.1031   3.6181   4.1347

          k = 0.0000-0.5000-0.5000 (  1356 PWs)   bands (ev):

    -4.8377  -4.7345  -4.7325  -2.8661  -0.0632  -0.0617  -0.0381   1.2126
     1.8066   1.8078   3.2436   3.7399   3.7734   3.8756

          k = 0.2500 0.2500 0.2500 (  1382 PWs)   bands (ev):

    -5.7668  -4.0720  -4.0720  -2.7126  -0.9260  -0.9260   0.6594   1.7319
     1.7319   2.8655   2.8937   3.6318   3.6318   4.2687

          k = 0.2500 0.2500-0.5000 (  1378 PWs)   bands (ev):

    -5.2781  -4.7847  -3.9524  -2.7051  -1.2621  -0.6345   0.1128   1.7375
     2.4444   2.7302   3.0897   3.1340   3.5716   5.0682

          k = 0.2500-0.5000-0.5000 (  1360 PWs)   bands (ev):

    -4.6915  -4.6283  -4.6261  -2.8847  -0.9478  -0.8525  -0.8512   1.9015
     2.6909   2.9177   2.9189   3.8374   3.9116   5.4074

          k =-0.5000-0.5000-0.5000 (  1376 PWs)   bands (ev):

    -4.5053  -4.5053  -4.5020  -2.9823  -1.3842  -1.3842  -1.3824   1.3378
     3.9056   3.9072   3.9072   3.9449   3.9449   6.5948

          k =-0.2500 0.0000 0.2500 (  1364 PWs)   bands (ev):

    -6.0026  -4.1728  -3.6852  -2.3812  -1.4664  -0.5824   1.0448   1.9039
     2.0192   2.4076   2.4227   3.3904   3.4858   4.6465

          k = 0.2500-0.2500 0.2500 (  1382 PWs)   bands (ev):

    -5.7671  -4.0720  -4.0693  -2.7177  -0.9259  -0.9235   0.6607   1.7315
     1.7335   2.8678   2.8949   3.6307   3.6311   4.2590

          k = 0.2500-0.2500-0.5000 (  1378 PWs)   bands (ev):

    -5.2785  -4.7846  -3.9503  -2.7088  -1.2604  -0.6345   0.1136   1.7390
     2.4446   2.7287   3.0906   3.1342   3.5707   5.0623

     highest occupied level (ev):     6.5948

!    total energy              =     -54.89801987 Ry
     Harris-Foulkes estimate   =     -54.89801987 Ry
     estimated scf accuracy    <          8.5E-11 Ry

     The total energy is the sum of the following terms:

     one-electron contribution =      11.80671525 Ry
     hartree contribution      =       5.04377664 Ry
     xc contribution           =     -16.47713411 Ry
     ewald contribution        =     -55.27137766 Ry

     convergence has been achieved in   6 iterations

     Forces acting on atoms (Ry/au):

     atom    1 type  1   force =     0.00527603    0.00527603    0.00527603
     atom    2 type  1   force =    -0.00502963   -0.00502963    0.00487732
     atom    3 type  1   force =    -0.00502963    0.00487732   -0.00502963
     atom    4 type  1   force =     0.00487732   -0.00502963   -0.00502963
     atom    5 type  1   force =     0.00029715    0.00029715   -0.00068837
     atom    6 type  1   force =     0.00029715   -0.00068837    0.00029715
     atom    7 type  1   force =    -0.00068837    0.00029715    0.00029715

     Total force =     0.017567     Total SCF correction =     0.000008


     entering subroutine stress ...

          total   stress  (Ry/bohr**3)                   (kbar)     P=  -12.33
  -0.00008383   0.00000334   0.00000334        -12.33      0.49      0.49
   0.00000334  -0.00008383   0.00000334          0.49    -12.33      0.49
   0.00000334   0.00000334  -0.00008383          0.49      0.49    -12.33


     number of scf cycles    =   3
     number of bfgs steps    =   2

     energy   old            =     -54.8975322967 Ry
     energy   new            =     -54.8980198694 Ry

     CASE: energy  _new < energy  _old

     new trust radius        =       0.0193023837 bohr
     new conv_thr            =       0.0000000005 Ry


ATOMIC_POSITIONS (alat)
Si       0.002468312   0.002468312   0.002468312
Si       0.497555784   0.497555784   0.002382693
Si       0.497555784   0.002382693   0.497555784
Si       0.002382693   0.497555784   0.497555784
Si       0.750157853   0.750157853   0.249721721
Si       0.750157853   0.249721721   0.750157853
Si       0.249721721   0.750157853   0.750157853



     Writing output data file silicon.save
     NEW-OLD atomic charge density approx. for the potential

     total cpu time spent up to now is       64.9 secs

     per-process dynamical memory:    10.0 Mb

     Self-consistent Calculation

     iteration #  1     ecut=    18.00 Ry     beta=0.70
     Davidson diagonalization with overlap
     ethr =  1.00E-06,  avg # of iterations =  4.9

     Threshold (ethr) on eigenvalues was too large:
     Diagonalizing with lowered threshold

     Davidson diagonalization with overlap
     ethr =  5.01E-08,  avg # of iterations =  2.6

     total cpu time spent up to now is       68.8 secs

     total energy              =     -54.89859205 Ry
     Harris-Foulkes estimate   =     -54.89859382 Ry
     estimated scf accuracy    <       0.00001420 Ry

     iteration #  2     ecut=    18.00 Ry     beta=0.70
     Davidson diagonalization with overlap
     ethr =  5.07E-08,  avg # of iterations =  2.5

     total cpu time spent up to now is       71.1 secs

     total energy              =     -54.89859280 Ry
     Harris-Foulkes estimate   =     -54.89859384 Ry
     estimated scf accuracy    <       0.00000236 Ry

     iteration #  3     ecut=    18.00 Ry     beta=0.70
     Davidson diagonalization with overlap
     ethr =  8.44E-09,  avg # of iterations =  4.2

     total cpu time spent up to now is       74.0 secs

     total energy              =     -54.89859314 Ry
     Harris-Foulkes estimate   =     -54.89859430 Ry
     estimated scf accuracy    <       0.00000285 Ry

     iteration #  4     ecut=    18.00 Ry     beta=0.70
     Davidson diagonalization with overlap
     ethr =  8.44E-09,  avg # of iterations =  3.2

     total cpu time spent up to now is       76.3 secs

     total energy              =     -54.89859371 Ry
     Harris-Foulkes estimate   =     -54.89859377 Ry
     estimated scf accuracy    <       0.00000017 Ry

     iteration #  5     ecut=    18.00 Ry     beta=0.70
     Davidson diagonalization with overlap
     ethr =  6.11E-10,  avg # of iterations =  3.6

     total cpu time spent up to now is       79.0 secs

     total energy              =     -54.89859375 Ry
     Harris-Foulkes estimate   =     -54.89859375 Ry
     estimated scf accuracy    <          9.4E-09 Ry

     iteration #  6     ecut=    18.00 Ry     beta=0.70
     Davidson diagonalization with overlap
     ethr =  3.37E-11,  avg # of iterations =  3.4

     total cpu time spent up to now is       80.9 secs

     End of self-consistent calculation

          k = 0.0000 0.0000 0.0000 (  1357 PWs)   bands (ev):

    -6.4724  -2.7384  -2.7384  -2.3557  -2.3557  -2.3520   1.8640   2.2540
     2.2545   2.2545   3.4848   3.4848   3.4876   6.2639

          k = 0.0000 0.0000 0.2500 (  1346 PWs)   bands (ev):

    -6.2250  -4.0902  -2.6665  -2.2863  -2.2838  -0.9520   1.7606   2.0087
     2.0100   2.1762   2.7469   3.2896   3.2911   5.5642

          k = 0.0000 0.0000-0.5000 (  1406 PWs)   bands (ev):

    -5.7271  -5.0413  -2.5893  -2.2123  -2.2099   0.0299   1.3614   1.4847
     1.7107   1.7126   3.3128   3.3137   3.5786   4.1444

          k = 0.0000 0.2500 0.2500 (  1364 PWs)   bands (ev):

    -5.9812  -4.1556  -3.6644  -2.3710  -1.4499  -0.5712   1.0596   1.9109
     2.0265   2.4227   2.4368   3.4022   3.5077   4.6229

          k = 0.0000 0.2500-0.5000 (  1370 PWs)   bands (ev):

    -5.4796  -4.8980  -3.6749  -2.5150  -1.1743  -0.0919   0.9219   1.1599
     2.0078   2.3416   3.0134   3.1339   3.6208   4.0975

          k = 0.0000-0.5000-0.5000 (  1356 PWs)   bands (ev):

    -4.8079  -4.7154  -4.7144  -2.8703  -0.0538  -0.0520  -0.0061   1.2465
     1.8084   1.8104   3.2353   3.6949   3.8166   3.8834

          k = 0.2500 0.2500 0.2500 (  1382 PWs)   bands (ev):

    -5.7452  -4.0517  -4.0517  -2.7021  -0.9172  -0.9172   0.6785   1.7482
     1.7482   2.8490   2.9060   3.6572   3.6572   4.2418

          k = 0.2500 0.2500-0.5000 (  1378 PWs)   bands (ev):

    -5.2533  -4.7681  -3.9305  -2.6931  -1.2571  -0.6292   0.1347   1.7573
     2.4195   2.7330   3.1018   3.1714   3.5978   5.0531

          k = 0.2500-0.5000-0.5000 (  1360 PWs)   bands (ev):

    -4.6647  -4.6079  -4.6070  -2.8750  -0.9286  -0.8486  -0.8465   1.8730
     2.7286   2.9256   2.9270   3.8696   3.9321   5.3868

          k =-0.5000-0.5000-0.5000 (  1376 PWs)   bands (ev):

    -4.4832  -4.4832  -4.4820  -2.9497  -1.3835  -1.3835  -1.3801   1.3059
     3.9180   3.9183   3.9183   3.9884   3.9884   6.5868

          k =-0.2500 0.0000 0.2500 (  1364 PWs)   bands (ev):

    -5.9812  -4.1547  -3.6655  -2.3708  -1.4511  -0.5693   1.0590   1.9105
     2.0279   2.4222   2.4360   3.4029   3.5090   4.6188

          k = 0.2500-0.2500 0.2500 (  1382 PWs)   bands (ev):

    -5.7453  -4.0517  -4.0505  -2.7048  -0.9170  -0.9144   0.6770   1.7476
     1.7486   2.8518   2.9064   3.6573   3.6590   4.2339

          k = 0.2500-0.2500-0.5000 (  1378 PWs)   bands (ev):

    -5.2535  -4.7680  -3.9297  -2.6950  -1.2549  -0.6300   0.1345   1.7573
     2.4198   2.7330   3.1025   3.1711   3.5988   5.0474

     highest occupied level (ev):     6.5868

!    total energy              =     -54.89859375 Ry
     Harris-Foulkes estimate   =     -54.89859375 Ry
     estimated scf accuracy    <          2.2E-10 Ry

     The total energy is the sum of the following terms:

     one-electron contribution =      11.95796925 Ry
     hartree contribution      =       4.97358197 Ry
     xc contribution           =     -16.46688565 Ry
     ewald contribution        =     -55.36325932 Ry

     convergence has been achieved in   6 iterations

     Forces acting on atoms (Ry/au):

     atom    1 type  1   force =     0.00411786    0.00411786    0.00411786
     atom    2 type  1   force =    -0.00372539   -0.00372539    0.00348399
     atom    3 type  1   force =    -0.00372539    0.00348399   -0.00372539
     atom    4 type  1   force =     0.00348399   -0.00372539   -0.00372539
     atom    5 type  1   force =     0.00011630    0.00011630   -0.00038368
     atom    6 type  1   force =     0.00011630   -0.00038368    0.00011630
     atom    7 type  1   force =    -0.00038368    0.00011630    0.00011630

     Total force =     0.013080     Total SCF correction =     0.000011


     entering subroutine stress ...

          total   stress  (Ry/bohr**3)                   (kbar)     P=  -14.61
  -0.00009929   0.00000333   0.00000333        -14.61      0.49      0.49
   0.00000333  -0.00009929   0.00000333          0.49    -14.61      0.49
   0.00000333   0.00000333  -0.00009929          0.49      0.49    -14.61


     number of scf cycles    =   4
     number of bfgs steps    =   3

     energy   old            =     -54.8980198694 Ry
     energy   new            =     -54.8985937513 Ry

     CASE: energy  _new < energy  _old

     new trust radius        =       0.0289535756 bohr
     new conv_thr            =       0.0000000004 Ry


ATOMIC_POSITIONS (alat)
Si       0.004107171   0.004107171   0.004107171
Si       0.496011859   0.496011859   0.003856388
Si       0.496011859   0.003856388   0.496011859
Si       0.003856388   0.496011859   0.496011859
Si       0.750230852   0.750230852   0.249551020
Si       0.750230852   0.249551020   0.750230852
Si       0.249551020   0.750230852   0.750230852



     Writing output data file silicon.save
     NEW-OLD atomic charge density approx. for the potential

     total cpu time spent up to now is       81.8 secs

     per-process dynamical memory:    10.0 Mb

     Self-consistent Calculation

     iteration #  1     ecut=    18.00 Ry     beta=0.70
     Davidson diagonalization with overlap
     ethr =  1.00E-06,  avg # of iterations =  5.5

     total cpu time spent up to now is       84.4 secs

     total energy              =     -54.89912668 Ry
     Harris-Foulkes estimate   =     -54.89913019 Ry
     estimated scf accuracy    <       0.00003049 Ry

     iteration #  2     ecut=    18.00 Ry     beta=0.70
     Davidson diagonalization with overlap
     ethr =  1.09E-07,  avg # of iterations =  2.5

     total cpu time spent up to now is       86.1 secs

     total energy              =     -54.89913026 Ry
     Harris-Foulkes estimate   =     -54.89913072 Ry
     estimated scf accuracy    <       0.00000268 Ry

     iteration #  3     ecut=    18.00 Ry     beta=0.70
     Davidson diagonalization with overlap
     ethr =  9.56E-09,  avg # of iterations =  4.5

     total cpu time spent up to now is       88.5 secs

     total energy              =     -54.89913071 Ry
     Harris-Foulkes estimate   =     -54.89913176 Ry
     estimated scf accuracy    <       0.00000232 Ry

     iteration #  4     ecut=    18.00 Ry     beta=0.70
     Davidson diagonalization with overlap
     ethr =  8.27E-09,  avg # of iterations =  3.0

     total cpu time spent up to now is       90.7 secs

     total energy              =     -54.89913122 Ry
     Harris-Foulkes estimate   =     -54.89913134 Ry
     estimated scf accuracy    <       0.00000033 Ry

     iteration #  5     ecut=    18.00 Ry     beta=0.70
     Davidson diagonalization with overlap
     ethr =  1.19E-09,  avg # of iterations =  3.8

     total cpu time spent up to now is       92.6 secs

     total energy              =     -54.89913130 Ry
     Harris-Foulkes estimate   =     -54.89913131 Ry
     estimated scf accuracy    <       0.00000003 Ry

     iteration #  6     ecut=    18.00 Ry     beta=0.70
     Davidson diagonalization with overlap
     ethr =  1.07E-10,  avg # of iterations =  2.8

     total cpu time spent up to now is       94.3 secs

     total energy              =     -54.89913131 Ry
     Harris-Foulkes estimate   =     -54.89913131 Ry
     estimated scf accuracy    <          1.1E-09 Ry

     iteration #  7     ecut=    18.00 Ry     beta=0.70
     Davidson diagonalization with overlap
     ethr =  3.82E-12,  avg # of iterations =  4.9

     total cpu time spent up to now is       96.1 secs

     End of self-consistent calculation

          k = 0.0000 0.0000 0.0000 (  1357 PWs)   bands (ev):

    -6.4435  -2.7074  -2.7074  -2.3338  -2.3338  -2.3329   1.8152   2.2718
     2.2718   2.2721   3.5247   3.5247   3.5289   6.2587

          k = 0.0000 0.0000 0.2500 (  1346 PWs)   bands (ev):

    -6.1949  -4.0648  -2.6340  -2.2642  -2.2638  -0.9345   1.7694   2.0298
     2.0310   2.1481   2.7751   3.3261   3.3291   5.5457

          k = 0.0000 0.0000-0.5000 (  1406 PWs)   bands (ev):

    -5.6901  -5.0234  -2.5552  -2.1901  -2.1899   0.0210   1.3646   1.5409
     1.7333   1.7359   3.3528   3.3553   3.5624   4.1088

          k = 0.0000 0.2500 0.2500 (  1364 PWs)   bands (ev):

    -5.9502  -4.1278  -3.6369  -2.3556  -1.4288  -0.5514   1.0814   1.9154
     2.0383   2.4463   2.4618   3.4189   3.5398   4.5813

          k = 0.0000 0.2500-0.5000 (  1370 PWs)   bands (ev):

    -5.4427  -4.8767  -3.6421  -2.5082  -1.1503  -0.0854   0.9653   1.1778
     2.0117   2.3738   3.0206   3.1781   3.6261   4.0432

          k = 0.0000-0.5000-0.5000 (  1356 PWs)   bands (ev):

    -4.7645  -4.6875  -4.6875  -2.8772  -0.0395  -0.0376   0.0398   1.2961
     1.8113   1.8144   3.2235   3.6289   3.8796   3.8953

          k = 0.2500 0.2500 0.2500 (  1382 PWs)   bands (ev):

    -5.7137  -4.0221  -4.0221  -2.6867  -0.9041  -0.9041   0.7048   1.7715
     1.7715   2.8253   2.9243   3.6954   3.6954   4.2018

          k = 0.2500 0.2500-0.5000 (  1378 PWs)   bands (ev):

    -5.2171  -4.7438  -3.8986  -2.6760  -1.2495  -0.6216   0.1668   1.7856
     2.3826   2.7371   3.1196   3.2267   3.6375   5.0309

          k = 0.2500-0.5000-0.5000 (  1360 PWs)   bands (ev):

    -4.6256  -4.5785  -4.5783  -2.8622  -0.9003  -0.8426  -0.8396   1.8308
     2.7837   2.9375   2.9392   3.9023   3.9771   5.3566

          k =-0.5000-0.5000-0.5000 (  1376 PWs)   bands (ev):

    -4.4520  -4.4511  -4.4511  -2.9035  -1.3821  -1.3821  -1.3771   1.2592
     3.9354   3.9354   3.9361   4.0517   4.0517   6.5746

          k =-0.2500 0.0000 0.2500 (  1364 PWs)   bands (ev):

    -5.9502  -4.1278  -3.6370  -2.3556  -1.4291  -0.5500   1.0796   1.9156
     2.0408   2.4442   2.4584   3.4216   3.5427   4.5787

          k = 0.2500-0.2500 0.2500 (  1382 PWs)   bands (ev):

    -5.7136  -4.0224  -4.0222  -2.6870  -0.9038  -0.9011   0.7002   1.7706
     1.7708   2.8284   2.9240   3.6966   3.6996   4.1966

          k = 0.2500-0.2500-0.5000 (  1378 PWs)   bands (ev):

    -5.2170  -4.7439  -3.8991  -2.6759  -1.2467  -0.6235   0.1655   1.7842
     2.3830   2.7385   3.1203   3.2258   3.6403   5.0258

     highest occupied level (ev):     6.5746

!    total energy              =     -54.89913131 Ry
     Harris-Foulkes estimate   =     -54.89913131 Ry
     estimated scf accuracy    <          1.6E-10 Ry

     The total energy is the sum of the following terms:

     one-electron contribution =      12.17654460 Ry
     hartree contribution      =       4.87211362 Ry
     xc contribution           =     -16.45176355 Ry
     ewald contribution        =     -55.49602599 Ry

     convergence has been achieved in   7 iterations

     Forces acting on atoms (Ry/au):

     atom    1 type  1   force =     0.00235864    0.00235864    0.00235864
     atom    2 type  1   force =    -0.00182383   -0.00182383    0.00147402
     atom    3 type  1   force =    -0.00182383    0.00147402   -0.00182383
     atom    4 type  1   force =     0.00147402   -0.00182383   -0.00182383
     atom    5 type  1   force =    -0.00005601   -0.00005601   -0.00007296
     atom    6 type  1   force =    -0.00005601   -0.00007296   -0.00005601
     atom    7 type  1   force =    -0.00007296   -0.00005601   -0.00005601

     Total force =     0.006573     Total SCF correction =     0.000013


     entering subroutine stress ...

          total   stress  (Ry/bohr**3)                   (kbar)     P=  -17.96
  -0.00012209   0.00000282   0.00000282        -17.96      0.41      0.41
   0.00000282  -0.00012209   0.00000282          0.41    -17.96      0.41
   0.00000282   0.00000282  -0.00012209          0.41      0.41    -17.96


     number of scf cycles    =   5
     number of bfgs steps    =   4

     energy   old            =     -54.8985937513 Ry
     energy   new            =     -54.8991313093 Ry

     CASE: energy  _new < energy  _old

     new trust radius        =       0.0297991870 bohr
     new conv_thr            =       0.0000000002 Ry


ATOMIC_POSITIONS (alat)
Si       0.005793893   0.005793893   0.005793893
Si       0.494485434   0.494485434   0.005268493
Si       0.494485434   0.005268493   0.494485434
Si       0.005268493   0.494485434   0.494485434
Si       0.750281236   0.750281236   0.249404273
Si       0.750281236   0.249404273   0.750281236
Si       0.249404273   0.750281236   0.750281236



     Writing output data file silicon.save
     NEW-OLD atomic charge density approx. for the potential

     total cpu time spent up to now is       97.0 secs

     per-process dynamical memory:    10.0 Mb

     Self-consistent Calculation

     iteration #  1     ecut=    18.00 Ry     beta=0.70
     Davidson diagonalization with overlap
     ethr =  1.00E-06,  avg # of iterations =  5.5

     total cpu time spent up to now is       99.8 secs

     total energy              =     -54.89930599 Ry
     Harris-Foulkes estimate   =     -54.89930976 Ry
     estimated scf accuracy    <       0.00003081 Ry

     iteration #  2     ecut=    18.00 Ry     beta=0.70
     Davidson diagonalization with overlap
     ethr =  1.10E-07,  avg # of iterations =  3.2

     total cpu time spent up to now is      101.2 secs

     total energy              =     -54.89932724 Ry
     Harris-Foulkes estimate   =     -54.89932773 Ry
     estimated scf accuracy    <       0.00001510 Ry

     iteration #  3     ecut=    18.00 Ry     beta=0.70
     Davidson diagonalization with overlap
     ethr =  5.39E-08,  avg # of iterations =  1.4

     total cpu time spent up to now is      102.3 secs

     total energy              =     -54.89932877 Ry
     Harris-Foulkes estimate   =     -54.89932815 Ry
     estimated scf accuracy    <       0.00000292 Ry

     iteration #  4     ecut=    18.00 Ry     beta=0.70
     Davidson diagonalization with overlap
     ethr =  1.04E-08,  avg # of iterations =  4.1

     total cpu time spent up to now is      103.7 secs

     total energy              =     -54.89932898 Ry
     Harris-Foulkes estimate   =     -54.89932919 Ry
     estimated scf accuracy    <       0.00000056 Ry

     iteration #  5     ecut=    18.00 Ry     beta=0.70
     Davidson diagonalization with overlap
     ethr =  1.98E-09,  avg # of iterations =  4.2

     total cpu time spent up to now is      105.4 secs

     total energy              =     -54.89932910 Ry
     Harris-Foulkes estimate   =     -54.89932919 Ry
     estimated scf accuracy    <       0.00000023 Ry

     iteration #  6     ecut=    18.00 Ry     beta=0.70
     Davidson diagonalization with overlap
     ethr =  8.13E-10,  avg # of iterations =  3.1

     total cpu time spent up to now is      107.2 secs

     total energy              =     -54.89932915 Ry
     Harris-Foulkes estimate   =     -54.89932916 Ry
     estimated scf accuracy    <       0.00000002 Ry

     iteration #  7     ecut=    18.00 Ry     beta=0.70
     Davidson diagonalization with overlap
     ethr =  7.39E-11,  avg # of iterations =  3.7

     total cpu time spent up to now is      108.8 secs

     total energy              =     -54.89932916 Ry
     Harris-Foulkes estimate   =     -54.89932916 Ry
     estimated scf accuracy    <          1.7E-09 Ry

     iteration #  8     ecut=    18.00 Ry     beta=0.70
     Davidson diagonalization with overlap
     ethr =  5.93E-12,  avg # of iterations =  3.5

     total cpu time spent up to now is      110.6 secs

     End of self-consistent calculation

          k = 0.0000 0.0000 0.0000 (  1357 PWs)   bands (ev):

    -6.4163  -2.6781  -2.6781  -2.3133  -2.3133  -2.3133   1.7629   2.2891
     2.2899   2.2899   3.5619   3.5619   3.5679   6.2426

          k = 0.0000 0.0000 0.2500 (  1346 PWs)   bands (ev):

    -6.1666  -4.0409  -2.6034  -2.2439  -2.2436  -0.9187   1.7781   2.0495
     2.0522   2.1147   2.8033   3.3609   3.3651   5.5262

          k = 0.0000 0.0000-0.5000 (  1406 PWs)   bands (ev):

    -5.6549  -5.0070  -2.5228  -2.1700  -2.1694   0.0102   1.3676   1.5944
     1.7541   1.7589   3.3922   3.3958   3.5443   4.0719

          k = 0.0000 0.2500 0.2500 (  1364 PWs)   bands (ev):

    -5.9211  -4.1015  -3.6107  -2.3412  -1.4090  -0.5332   1.1018   1.9145
     2.0495   2.4687   2.4884   3.4352   3.5706   4.5400

          k = 0.0000 0.2500-0.5000 (  1370 PWs)   bands (ev):

    -5.4076  -4.8569  -3.6108  -2.5024  -1.1277  -0.0800   1.0070   1.1943
     2.0142   2.4055   3.0272   3.2193   3.6324   3.9887

          k = 0.0000-0.5000-0.5000 (  1356 PWs)   bands (ev):

    -4.7231  -4.6617  -4.6612  -2.8852  -0.0262  -0.0231   0.0827   1.3439
     1.8134   1.8185   3.2114   3.5625   3.9064   3.9408

          k = 0.2500 0.2500 0.2500 (  1382 PWs)   bands (ev):

    -5.6840  -3.9942  -3.9942  -2.6723  -0.8922  -0.8922   0.7293   1.7934
     1.7934   2.8012   2.9414   3.7330   3.7330   4.1607

          k = 0.2500 0.2500-0.5000 (  1378 PWs)   bands (ev):

    -5.1826  -4.7210  -3.8683  -2.6606  -1.2431  -0.6146   0.1976   1.8122
     2.3448   2.7403   3.1364   3.2806   3.6768   5.0077

          k = 0.2500-0.5000-0.5000 (  1360 PWs)   bands (ev):

    -4.5884  -4.5511  -4.5502  -2.8520  -0.8735  -0.8375  -0.8325   1.7879
     2.8367   2.9485   2.9518   3.9233   4.0310   5.3259

          k =-0.5000-0.5000-0.5000 (  1376 PWs)   bands (ev):

    -4.4229  -4.4206  -4.4206  -2.8611  -1.3817  -1.3817  -1.3736   1.2124
     3.9526   3.9532   3.9532   4.1123   4.1123   6.5615

          k =-0.2500 0.0000 0.2500 (  1364 PWs)   bands (ev):

    -5.9210  -4.1020  -3.6103  -2.3414  -1.4090  -0.5310   1.0991   1.9137
     2.0533   2.4660   2.4820   3.4397   3.5747   4.5391

          k = 0.2500-0.2500 0.2500 (  1382 PWs)   bands (ev):

    -5.6838  -3.9954  -3.9942  -2.6714  -0.8919  -0.8877   0.7206   1.7919
     1.7923   2.8046   2.9420   3.7338   3.7387   4.1583

          k = 0.2500-0.2500-0.5000 (  1378 PWs)   bands (ev):

    -5.1822  -4.7211  -3.8696  -2.6593  -1.2387  -0.6181   0.1951   1.8099
     2.3454   2.7426   3.1383   3.2787   3.6809   5.0035

     highest occupied level (ev):     6.5615

!    total energy              =     -54.89932916 Ry
     Harris-Foulkes estimate   =     -54.89932916 Ry
     estimated scf accuracy    <          4.9E-11 Ry

     The total energy is the sum of the following terms:

     one-electron contribution =      12.39071322 Ry
     hartree contribution      =       4.77095253 Ry
     xc contribution           =     -16.43561877 Ry
     ewald contribution        =     -55.62537614 Ry

     convergence has been achieved in   8 iterations

     Forces acting on atoms (Ry/au):

     atom    1 type  1   force =     0.00085101    0.00085101    0.00085101
     atom    2 type  1   force =    -0.00009753   -0.00009753   -0.00001818
     atom    3 type  1   force =    -0.00009753   -0.00001818   -0.00009753
     atom    4 type  1   force =    -0.00001818   -0.00009753   -0.00009753
     atom    5 type  1   force =    -0.00058159   -0.00058159    0.00052542
     atom    6 type  1   force =    -0.00058159    0.00052542   -0.00058159
     atom    7 type  1   force =     0.00052542   -0.00058159   -0.00058159

     Total force =     0.002256     Total SCF correction =     0.000004


     entering subroutine stress ...

          total   stress  (Ry/bohr**3)                   (kbar)     P=  -21.65
  -0.00014717   0.00000252   0.00000252        -21.65      0.37      0.37
   0.00000252  -0.00014717   0.00000252          0.37    -21.65      0.37
   0.00000252   0.00000252  -0.00014717          0.37      0.37    -21.65


     number of scf cycles    =   6
     number of bfgs steps    =   5

     energy   old            =     -54.8991313093 Ry
     energy   new            =     -54.8993291557 Ry

     CASE: energy  _new < energy  _old

     new trust radius        =       0.0060412922 bohr
     new conv_thr            =            1.0E-10 Ry


ATOMIC_POSITIONS (alat)
Si       0.006135848   0.006135848   0.006135848
Si       0.494247619   0.494247619   0.005479847
Si       0.494247619   0.005479847   0.494247619
Si       0.005479847   0.494247619   0.494247619
Si       0.750224869   0.750224869   0.249439328
Si       0.750224869   0.249439328   0.750224869
Si       0.249439328   0.750224869   0.750224869



     Writing output data file silicon.save
     NEW-OLD atomic charge density approx. for the potential

     total cpu time spent up to now is      111.6 secs

     per-process dynamical memory:    10.0 Mb

     Self-consistent Calculation

     iteration #  1     ecut=    18.00 Ry     beta=0.70
     Davidson diagonalization with overlap
     ethr =  1.00E-06,  avg # of iterations =  2.2

     Threshold (ethr) on eigenvalues was too large:
     Diagonalizing with lowered threshold

     Davidson diagonalization with overlap
     ethr =  4.71E-09,  avg # of iterations =  4.9

     total cpu time spent up to now is      115.7 secs

     total energy              =     -54.89933642 Ry
     Harris-Foulkes estimate   =     -54.89933703 Ry
     estimated scf accuracy    <       0.00000161 Ry

     iteration #  2     ecut=    18.00 Ry     beta=0.70
     Davidson diagonalization with overlap
     ethr =  5.76E-09,  avg # of iterations =  3.9

     total cpu time spent up to now is      117.5 secs

     total energy              =     -54.89933639 Ry
     Harris-Foulkes estimate   =     -54.89933711 Ry
     estimated scf accuracy    <       0.00000144 Ry

     iteration #  3     ecut=    18.00 Ry     beta=0.70
     Davidson diagonalization with overlap
     ethr =  5.14E-09,  avg # of iterations =  3.7

     total cpu time spent up to now is      119.3 secs

     total energy              =     -54.89933676 Ry
     Harris-Foulkes estimate   =     -54.89933687 Ry
     estimated scf accuracy    <       0.00000032 Ry

     iteration #  4     ecut=    18.00 Ry     beta=0.70
     Davidson diagonalization with overlap
     ethr =  1.15E-09,  avg # of iterations =  3.1

     total cpu time spent up to now is      121.0 secs

     total energy              =     -54.89933682 Ry
     Harris-Foulkes estimate   =     -54.89933682 Ry
     estimated scf accuracy    <       0.00000001 Ry

     iteration #  5     ecut=    18.00 Ry     beta=0.70
     Davidson diagonalization with overlap
     ethr =  4.98E-11,  avg # of iterations =  3.8

     total cpu time spent up to now is      123.1 secs

     total energy              =     -54.89933682 Ry
     Harris-Foulkes estimate   =     -54.89933682 Ry
     estimated scf accuracy    <          8.3E-10 Ry

     iteration #  6     ecut=    18.00 Ry     beta=0.70
     Davidson diagonalization with overlap
     ethr =  2.98E-12,  avg # of iterations =  2.8

     total cpu time spent up to now is      124.9 secs

     total energy              =     -54.89933682 Ry
     Harris-Foulkes estimate   =     -54.89933682 Ry
     estimated scf accuracy    <          1.0E-10 Ry

     iteration #  7     ecut=    18.00 Ry     beta=0.70
     Davidson diagonalization with overlap
     c_bands:  1 eigenvalues not converged
     ethr =  3.58E-13,  avg # of iterations =  3.8

     total cpu time spent up to now is      127.0 secs

     End of self-consistent calculation

          k = 0.0000 0.0000 0.0000 (  1357 PWs)   bands (ev):

    -6.4117  -2.6730  -2.6730  -2.3106  -2.3106  -2.3082   1.7541   2.2916
     2.2933   2.2933   3.5688   3.5688   3.5733   6.2381

          k = 0.0000 0.0000 0.2500 (  1346 PWs)   bands (ev):

    -6.1617  -4.0367  -2.5980  -2.2410  -2.2396  -0.9160   1.7797   2.0527
     2.0560   2.1089   2.8084   3.3678   3.3704   5.5230

          k = 0.0000 0.0000-0.5000 (  1406 PWs)   bands (ev):

    -5.6488  -5.0042  -2.5172  -2.1667  -2.1656   0.0085   1.3683   1.6036
     1.7576   1.7627   3.4000   3.4018   3.5412   4.0658

          k = 0.0000 0.2500 0.2500 (  1364 PWs)   bands (ev):

    -5.9160  -4.0974  -3.6058  -2.3386  -1.4054  -0.5299   1.1047   1.9144
     2.0517   2.4716   2.4924   3.4388   3.5768   4.5331

          k = 0.0000 0.2500-0.5000 (  1370 PWs)   bands (ev):

    -5.4016  -4.8535  -3.6054  -2.5014  -1.1238  -0.0789   1.0141   1.1971
     2.0146   2.4110   3.0284   3.2262   3.6338   3.9797

          k = 0.0000-0.5000-0.5000 (  1356 PWs)   bands (ev):

    -4.7158  -4.6571  -4.6568  -2.8866  -0.0235  -0.0209   0.0899   1.3521
     1.8141   1.8190   3.2096   3.5515   3.9086   3.9511

          k = 0.2500 0.2500 0.2500 (  1382 PWs)   bands (ev):

    -5.6787  -3.9899  -3.9899  -2.6684  -0.8897  -0.8897   0.7317   1.7962
     1.7962   2.7979   2.9438   3.7410   3.7410   4.1538

          k = 0.2500 0.2500-0.5000 (  1378 PWs)   bands (ev):

    -5.1765  -4.7171  -3.8637  -2.6572  -1.2414  -0.6135   0.2023   1.8158
     2.3386   2.7413   3.1393   3.2897   3.6847   5.0036

          k = 0.2500-0.5000-0.5000 (  1360 PWs)   bands (ev):

    -4.5818  -4.5460  -4.5459  -2.8503  -0.8687  -0.8360  -0.8319   1.7808
     2.8458   2.9506   2.9539   3.9266   4.0406   5.3209

          k =-0.5000-0.5000-0.5000 (  1376 PWs)   bands (ev):

    -4.4164  -4.4160  -4.4160  -2.8540  -1.3809  -1.3809  -1.3742   1.2047
     3.9551   3.9566   3.9566   4.1226   4.1226   6.5595

          k =-0.2500 0.0000 0.2500 (  1364 PWs)   bands (ev):

    -5.9161  -4.0971  -3.6061  -2.3390  -1.4057  -0.5278   1.1030   1.9126
     2.0552   2.4706   2.4872   3.4423   3.5793   4.5328

          k = 0.2500-0.2500 0.2500 (  1382 PWs)   bands (ev):

    -5.6787  -3.9899  -3.9897  -2.6693  -0.8896  -0.8857   0.7246   1.7953
     1.7968   2.8006   2.9453   3.7405   3.7441   4.1520

          k = 0.2500-0.2500-0.5000 (  1378 PWs)   bands (ev):

    -5.1764  -4.7172  -3.8639  -2.6572  -1.2377  -0.6169   0.2008   1.8152
     2.3391   2.7430   3.1415   3.2879   3.6868   5.0003

     highest occupied level (ev):     6.5595

!    total energy              =     -54.89933682 Ry
     Harris-Foulkes estimate   =     -54.89933682 Ry
     estimated scf accuracy    <          1.3E-12 Ry

     The total energy is the sum of the following terms:

     one-electron contribution =      12.42602826 Ry
     hartree contribution      =       4.75448455 Ry
     xc contribution           =     -16.43304447 Ry
     ewald contribution        =     -55.64680517 Ry

     convergence has been achieved in   7 iterations

     Forces acting on atoms (Ry/au):

     atom    1 type  1   force =     0.00050975    0.00050975    0.00050975
     atom    2 type  1   force =     0.00021779    0.00021779   -0.00028734
     atom    3 type  1   force =     0.00021779   -0.00028734    0.00021779
     atom    4 type  1   force =    -0.00028734    0.00021779    0.00021779
     atom    5 type  1   force =    -0.00050229   -0.00050229    0.00034660
     atom    6 type  1   force =    -0.00050229    0.00034660   -0.00050229
     atom    7 type  1   force =     0.00034660   -0.00050229   -0.00050229

     Total force =     0.001785     Total SCF correction =     0.000001


     entering subroutine stress ...

          total   stress  (Ry/bohr**3)                   (kbar)     P=  -22.22
  -0.00015107   0.00000349   0.00000349        -22.22      0.51      0.51
   0.00000349  -0.00015107   0.00000349          0.51    -22.22      0.51
   0.00000349   0.00000349  -0.00015107          0.51      0.51    -22.22


     bfgs converged in   7 scf cycles and   6 bfgs steps
     (criteria: energy <  1.0E-04, force <  1.0E-03)

     End of BFGS Geometry Optimization

     Final energy   =     -54.8993368201 Ry
Begin final coordinates

ATOMIC_POSITIONS (alat)
Si       0.006135848   0.006135848   0.006135848
Si       0.494247619   0.494247619   0.005479847
Si       0.494247619   0.005479847   0.494247619
Si       0.005479847   0.494247619   0.494247619
Si       0.750224869   0.750224869   0.249439328
Si       0.750224869   0.249439328   0.750224869
Si       0.249439328   0.750224869   0.750224869
End final coordinates



     Writing output data file silicon.save

     init_run     :      1.15s CPU      1.38s WALL (       1 calls)
     electrons    :     95.61s CPU    119.12s WALL (       7 calls)
     update_pot   :      0.46s CPU      0.51s WALL (       6 calls)
     forces       :      1.48s CPU      1.74s WALL (       7 calls)
     stress       :      3.81s CPU      4.32s WALL (       7 calls)

     Called by init_run:
     wfcinit      :      0.87s CPU      0.95s WALL (       1 calls)
     potinit      :      0.06s CPU      0.05s WALL (       1 calls)

     Called by electrons:
     c_bands      :     83.92s CPU    104.24s WALL (      60 calls)
     sum_band     :      9.15s CPU     11.71s WALL (      60 calls)
     v_of_rho     :      2.33s CPU      2.77s WALL (      62 calls)
     mix_rho      :      0.39s CPU      0.52s WALL (      60 calls)

     Called by c_bands:
     init_us_2    :      1.92s CPU      2.87s WALL (    1755 calls)
     cegterg      :     81.44s CPU    100.74s WALL (     780 calls)

     Called by sum_band:

     Called by *egterg:
     h_psi        :     56.66s CPU     69.76s WALL (    3513 calls)
     g_psi        :      1.02s CPU      1.30s WALL (    2720 calls)
     cdiaghg      :      3.84s CPU      5.21s WALL (    3357 calls)

     Called by h_psi:
     add_vuspsi   :      5.01s CPU      6.30s WALL (    3513 calls)

     General routines
     calbec       :      6.49s CPU      7.71s WALL (    3968 calls)
     fft          :      0.67s CPU      0.80s WALL (     747 calls)
     fftw         :     45.77s CPU     55.74s WALL (   76534 calls)
     davcio       :      0.86s CPU      1.13s WALL (    3015 calls)


     PWSCF        :  1m43.13s CPU     2m 7.82s WALL


   This run was terminated on:  21:30:27   3Mar2020            

=------------------------------------------------------------------------------=
   JOB DONE.
=------------------------------------------------------------------------------=
